titolo,pubblicato
11 Ping!: Fink Different,"Dicembre 28, 2001| In Non categorizzato| No Comments"
10 Ping!: Un bambino prodigio,"Dicembre 27, 2001| In Non categorizzato| No Comments"
9 Ping! - Neanche il vicepresidente,"Dicembre 22, 2001| In Non categorizzato| No Comments"
8 Ping!,"Dicembre 6, 2001| In Non categorizzato| No Comments"
