titolo,pubblicato
29 Ping al suo posto,"Agosto 25, 2003| In Non categorizzato| No Comments"
28 A scuola di interfaccia,"Agosto 8, 2003| In Non categorizzato| No Comments"
27 Ping! - Stanca e straordinaria,"Agosto 7, 2003| In Non categorizzato| No Comments"
26 Ping! - Quei giochi immortali,"Agosto 6, 2003| In Non categorizzato| No Comments"
25 Ping! - Il braccio robusto dell’iMac,"Agosto 5, 2003| In Non categorizzato| No Comments"
24 Ping! - La rivincita del floppy,"Agosto 4, 2003| In Non categorizzato| No Comments"
