titolo,pubblicato
103 Ping! Soldi veri e carta carbone,"Giugno 22, 2004| In Non categorizzato| No Comments"
102 Ping! I crackpot e la gente perbene,"Giugno 21, 2004| In Non categorizzato| No Comments"
101 Ping! Nuovi galatei,"Giugno 20, 2004| In Non categorizzato| No Comments"
100 Ping! Evviva l’inglese americano,"Giugno 19, 2004| In Non categorizzato| No Comments"
99 I Ping del futuro,"Giugno 18, 2004| In Non categorizzato| No Comments"
98 Ping! Cloni e Ploni,"Giugno 18, 2004| In Non categorizzato| No Comments"
97 Ping! Oggetti del desiderio,"Giugno 17, 2004| In Non categorizzato| No Comments"
96 Ping! Un dollaro a settimana,"Giugno 16, 2004| In Non categorizzato| No Comments"
95 Ping! La ventola di La Palisse,"Giugno 15, 2004| In Non categorizzato| No Comments"
94 Ping! Vai a fare un curl,"Giugno 4, 2004| In Non categorizzato| No Comments"
93 Ping! I vantaggi dell’open source,"Giugno 3, 2004| In Non categorizzato| No Comments"
92 Ping! Security e update,"Giugno 1, 2004| In Non categorizzato| No Comments"
