titolo,pubblicato
130 Lo smito dei megahertz,"Settembre 29, 2004| In Non categorizzato| No Comments"
129 Ciucciami il Dockino,"Settembre 29, 2004| In Non categorizzato| No Comments"
128 Il passato d?? l’esempio,"Settembre 27, 2004| In Non categorizzato| No Comments"
127 Se i prezzi Apple li fa il pusher hardware,"Settembre 25, 2004| In Non categorizzato| No Comments"
126 Restauri stellari,"Settembre 25, 2004| In Non categorizzato| No Comments"
125 Se i prezzi Apple li fa il Wall Street Journal,"Settembre 24, 2004| In Non categorizzato| No Comments"
124 L’update degli altri ? sempre pi? bacato,"Settembre 23, 2004| In Non categorizzato| No Comments"
123 Il diavolo sta nel multiplayer,"Settembre 22, 2004| In Non categorizzato| No Comments"
122 Il profitto ? l’anima del commercio,"Settembre 20, 2004| In Non categorizzato| No Comments"
121 Gentoo (non) di passaggio,"Settembre 20, 2004| In Non categorizzato| No Comments"
"120 Guarda, senza mouse!","Settembre 18, 2004| In Non categorizzato| No Comments"
119 Altro che palmare,"Settembre 17, 2004| In Non categorizzato| No Comments"
"118 Nascono gli Apple Center, a partire da","Settembre 17, 2004| In Non categorizzato| No Comments"
117 Chi ha bisogno di Office?,"Settembre 16, 2004| In Non categorizzato| No Comments"
116 Il G7 del 2010,"Settembre 14, 2004| In Non categorizzato| 1 Comment"
115 Come mai non siamo all’otto?,"Settembre 13, 2004| In Non categorizzato| No Comments"
114 Di riferimento,"Settembre 10, 2004| In Non categorizzato| No Comments"
113 Non pi? negozi,"Settembre 8, 2004| In Non categorizzato| No Comments"
112 Nessun uomo è un’insulina,"Settembre 8, 2004| In Nomi, Life| 2 Comments"
111 Il signore dei calendari,"Settembre 8, 2004| In Non categorizzato| No Comments"
110 Un’azienda del secolo scorso,"Settembre 8, 2004| In Non Categorizzato | No Comments"
109 Il gioco del quindici,"Settembre 3, 2004| In Uncategorized| No Comments"
