titolo,pubblicato
86 Ping! Un gioco per l’estate,"Aprile 13, 2004| In Non categorizzato| No Comments"
85 Ping! Quando si dice Unix,"Aprile 12, 2004| In Non categorizzato| No Comments"
84 Occhio alla curva,"Aprile 11, 2004| In Non categorizzato| No Comments"
83 Ping! Pi? luce su Panther,"Aprile 10, 2004| In Non categorizzato| No Comments"
82 Ping! La buona musica,"Aprile 9, 2004| In Non categorizzato| No Comments"
81 Ping! RagTime eufemismo,"Aprile 8, 2004| In Non categorizzato| No Comments"
