titolo,pubblicato
75 L’inglese e l’imbarazzo,"Febbraio 29, 2004| In Non categorizzato| No Comments"
74 Dall’invenduto all’evoluto,"Febbraio 28, 2004| In Non categorizzato| No Comments"
73 Da PostScript a Pdf,"Febbraio 26, 2004| In Non categorizzato| No Comments"
72 Dvd et impara,"Febbraio 25, 2004| In Non categorizzato| No Comments"
71 Il quasi ritorno di HyperCard,"Febbraio 24, 2004| In Soft| 2 Comments"
70 Programmatori e quacquaracqu,"Febbraio 16, 2004| In Non categorizzato| No Comments"
69 Biblioteche e tab?,"Febbraio 13, 2004| In Non categorizzato| No Comments"
68 Fare soldi con la musica? Naaah,"Febbraio 12, 2004| In Non categorizzato| No Comments"
67 YourDoom,"Febbraio 11, 2004| In Non categorizzato| No Comments"
66 Copia continua,"Febbraio 10, 2004| In Non categorizzato| No Comments"
