titolo,pubblicato
522 Chi molto dà,"Novembre 29, 2005| In Non categorizzato| No Comments"
521 Presentarsi è molto,"Novembre 29, 2005| In Non categorizzato| No Comments"
520 Notizie e prototipi,"Novembre 27, 2005| In Hard, Soft| No Comments"
519 Un canarino che canta ancora,"Novembre 26, 2005| In Non categorizzato| No Comments"
518 Il morbo del Pc,"Novembre 26, 2005| In Non categorizzato| No Comments"
517 Scorciatoia a root,"Novembre 25, 2005| In Non categorizzato| No Comments"
516 C’è anche in italiano,"Novembre 25, 2005| In Non categorizzato| No Comments"
515 iWork più uno,"Novembre 23, 2005| In Non categorizzato| No Comments"
514 La visita di Hassan,"Novembre 22, 2005| In Non categorizzato| No Comments"
513 Da Moccio a Sophia,"Novembre 20, 2005| In Non categorizzato| No Comments"
512 Scrivere costa poco,"Novembre 20, 2005| In Non categorizzato| No Comments"
511 Un sabato qualunque,"Novembre 19, 2005| In Non categorizzato| No Comments"
510 Desktop Tales,"Novembre 18, 2005| In Non categorizzato| No Comments"
509 Una grattatina alla superficie,"Novembre 18, 2005| In Non categorizzato| 1 Comment"
508 Pigro e non pigro,"Novembre 16, 2005| In Non categorizzato| No Comments"
507 Fumo e arrosto,"Novembre 16, 2005| In Non categorizzato| No Comments"
506 La libertà non è star sopra un albero (di file),"Novembre 15, 2005| In Non categorizzato| 4 Comments"
505 Curve non pericolose,"Novembre 10, 2005| In Non categorizzato| No Comments"
504 Un aggiornamento non fa primavera,"Novembre 10, 2005| In Non categorizzato| No Comments"
503 De video iPodibus,"Novembre 10, 2005| In Non categorizzato| No Comments"
502 Il lucchetto dove lo metto,"Novembre 10, 2005| In Non categorizzato| No Comments"
501 L’aggiornamento miracoloso,"Novembre 9, 2005| In Non categorizzato| No Comments"
500 Semplice come le Pringles alla cipolla,"Novembre 9, 2005| In Non categorizzato| No Comments"
499 Uomini di Poc parole,"Novembre 5, 2005| In Non categorizzato| No Comments"
"498 Veni, video, et vi devo dire","Novembre 5, 2005| In Non categorizzato| No Comments"
497 Non solo gDisk,"Novembre 5, 2005| In Non categorizzato| 1 Comment"
496 Non c’è rischio,"Novembre 1, 2005| In Non categorizzato| No Comments"
495 Un disco solo per Mac,"Novembre 1, 2005| In Non categorizzato| 1 Comment"
494 L’art pour l’art,"Novembre 1, 2005| In Non categorizzato| No Comments"
