titolo,pubblicato
369 Scopiazzon de’ Scopiazzoni,"Giugno 29, 2005| In Non categorizzato| No Comments"
368 Ciò che serve quando serve,"Giugno 28, 2005| In Non categorizzato| No Comments"
367 Nuove esperienze,"Giugno 28, 2005| In Non categorizzato| No Comments"
366 Lo stile per persone normali,"Giugno 28, 2005| In Non categorizzato| No Comments"
365 Quel che serve in pausa caffè,"Giugno 27, 2005| In Non categorizzato| No Comments"
364 Obsoleto è il modo di pensare,"Giugno 25, 2005| In Non categorizzato| No Comments"
363 In Europa c’è un museo Apple,"Giugno 23, 2005| In Non categorizzato| No Comments"
362 Con l’open source non ci si annokia,"Giugno 22, 2005| In Non categorizzato| No Comments"
361 Qualunque cosa sia il brand,"Giugno 20, 2005| In Non categorizzato| No Comments"
360 Sergio e chi ci crede,"Giugno 19, 2005| In Non categorizzato| No Comments"
359 Que viva Java,"Giugno 18, 2005| In Non categorizzato| No Comments"
358 Diamoci pure del tool,"Giugno 18, 2005| In Non categorizzato| No Comments"
357 Salvato il soldato Ryan,"Giugno 18, 2005| In Non categorizzato| No Comments"
356 La pagina che non c’è,"Giugno 18, 2005| In Non categorizzato| No Comments"
355 Tempo presente e futuro anteriore,"Giugno 16, 2005| In Non categorizzato| No Comments"
354 Non basta chiamarlo emulatore,"Giugno 16, 2005| In Non categorizzato| No Comments"
353 Come si sta in iChat,"Giugno 14, 2005| In Non categorizzato| No Comments"
"352 Fase uno, inizio","Giugno 14, 2005| In Non categorizzato| No Comments"
"351 Sviluppatori, tutto ok","Giugno 13, 2005| In Non categorizzato| No Comments"
350 Blog alla geek,"Giugno 8, 2005| In Non categorizzato| No Comments"
349 Servizio d’ordine,"Giugno 7, 2005| In Non categorizzato| No Comments"
348 Notizie dal mondo reale,"Giugno 7, 2005| In Non categorizzato| No Comments"
347 Spegnere i nosotti,"Giugno 5, 2005| In Non categorizzato| No Comments"
346 Lettura per l’estate,"Giugno 4, 2005| In Non categorizzato| No Comments"
345 Il segnalibro invisibile,"Giugno 4, 2005| In Non categorizzato| No Comments"
344 Un pensiero per la minoranza di sinistra,"Giugno 2, 2005| In Non categorizzato| No Comments"
343 Chi si accontenta rode,"Giugno 2, 2005| In Non categorizzato| No Comments"
342 Andiamoci piano con Dashboard,"Giugno 2, 2005| In Non categorizzato| No Comments"
341 Il bene minore,"Giugno 2, 2005| In Non categorizzato| No Comments"
340 Quant’è concreto il gioco virtuale,"Giugno 1, 2005| In Non categorizzato| 2 Comments"
