titolo,pubblicato
"245 No, io sono puntuale","Febbraio 27, 2005| In Non categorizzato| No Comments"
244 Dove vanno i soldi dei Vip,"Febbraio 27, 2005| In Non categorizzato| No Comments"
243 Tutto sommato un bel Panorama,"Febbraio 25, 2005| In Non categorizzato| No Comments"
242 Backup finale,"Febbraio 25, 2005| In Non categorizzato| No Comments"
"241 Tutto, subito e gratis","Febbraio 24, 2005| In Non categorizzato| No Comments"
240 La resa dell’Lcd,"Febbraio 23, 2005| In Non categorizzato| No Comments"
239 Siti con il condizionale,"Febbraio 22, 2005| In Non categorizzato| No Comments"
238 Curiosità in azione,"Febbraio 20, 2005| In Non categorizzato| No Comments"
237 Cose che ho visto nel weekend,"Febbraio 20, 2005| In Non categorizzato| No Comments"
236 Portatile e… schermato,"Febbraio 18, 2005| In Non categorizzato| No Comments"
235 Il gioco delle tre carte(lle),"Febbraio 17, 2005| In Non categorizzato| No Comments"
234 Pagine da antologia,"Febbraio 16, 2005| In Non categorizzato| No Comments"
233 La sindrome di Billusconi,"Febbraio 15, 2005| In Non categorizzato| No Comments"
232 Banana split,"Febbraio 13, 2005| In Non categorizzato| No Comments"
231 La maledizione di root,"Febbraio 12, 2005| In Non categorizzato| No Comments"
230 (non abbastanza) caro hub ti scrivo…,"Febbraio 12, 2005| In Non categorizzato| No Comments"
229 Non parlarmi di politica,"Febbraio 10, 2005| In Non categorizzato| No Comments"
228 L’orologio rotto,"Febbraio 9, 2005| In Non categorizzato| No Comments"
227 Un sito dove si gioca seriamente,"Febbraio 8, 2005| In Non categorizzato| No Comments"
226 X11 da Terminale,"Febbraio 8, 2005| In Non categorizzato| No Comments"
225 Per una volta la tv,"Febbraio 8, 2005| In Non categorizzato| No Comments"
224 Regali a caduta,"Febbraio 6, 2005| In Non categorizzato| No Comments"
"223 Autocoscienza? No, consapevolezza","Febbraio 4, 2005| In Non categorizzato| No Comments"
222 Mannaggia a Gertrude,"Febbraio 3, 2005| In Non categorizzato| No Comments"
221 Anche quella spesa,"Febbraio 3, 2005| In Non categorizzato| No Comments"
220 Giga e gibi,"Febbraio 2, 2005| In Non categorizzato| No Comments"
"219 Quello che serve, quando serve","Febbraio 1, 2005| In Non categorizzato| No Comments"
