titolo,pubblicato
982 iPod e World of Warcraft… e diventi terrorista anche tu!,"Agosto 31, 2006| In Life| 7 Comments"
981 La discussione che mi sono perso,"Agosto 30, 2006| In Soft| 8 Comments"
983 Aqua pesante,"Agosto 29, 2006| In Soft| 2 Comments"
979 Sulle punte di Bluetooth,"Agosto 29, 2006| In Hard, Soft| 6 Comments"
980 Faites vos jeux,"Agosto 28, 2006| In Soft| 44 Comments"
978 Calcolatrice acerba,"Agosto 28, 2006| In Soft| 2 Comments"
976 Kit con sorpresa,"Agosto 27, 2006| In Soft| No Comments"
975 Come lo fanno,"Agosto 26, 2006| In Soft| No Comments"
974 Sapere tutto di tutti,"Agosto 25, 2006| In Unix| 5 Comments"
973 Malati di chiocciola,"Agosto 24, 2006| In Soft| No Comments"
972 Essere imperfetto,"Agosto 23, 2006| In Life| 16 Comments"
971 Il giorno del feedback,"Agosto 22, 2006| In Soft| No Comments"
970 Mestieri e mestieranti,"Agosto 21, 2006| In Soft, Nomi| No Comments"
969 Le funzioni segrete di Leopard,"Agosto 20, 2006| In Soft| 20 Comments"
"968 Bona lex, Fitts lex","Agosto 19, 2006| In Nomi| 23 Comments"
967 Quale sarà il prossimo gioco tormentone,"Agosto 18, 2006| In Soft| 3 Comments"
966 Alchimie temporali,"Agosto 17, 2006| In Soft| 4 Comments"
977 Vedi o’Newton quant’è bello,"Agosto 16, 2006| In Hard, Soft, Life| 4 Comments"
948 Fink Fun,"Agosto 16, 2006| In Soft, Unix| 13 Comments"
"947 Se non ora, quando?","Agosto 15, 2006| In Soft| 1 Comment"
945 Il gioco è un affare serio,"Agosto 14, 2006| In Soft| 4 Comments"
943 Cubi e teste quadre,"Agosto 13, 2006| In Blob| 1 Comment"
942 Ufficio semplificazione affari complessi,"Agosto 12, 2006| In Soft| No Comments"
941 L’iPhoto dei Pdf,"Agosto 11, 2006| In Soft| 8 Comments"
939 Dove meno te l’aspetti,"Agosto 10, 2006| In Soft| 3 Comments"
938 Stan Lee vs. Yoshiyuki Tomino,"Agosto 9, 2006| In Hard, Nomi| 18 Comments"
965 C’è chi non si smentisce mai,"Agosto 8, 2006| In Blob| 4 Comments"
937 Corsi e ricorsi,"Agosto 8, 2006| In Work| 1 Comment"
964 Chiacchierata tra amici,"Agosto 7, 2006| In Life| 16 Comments"
963 Riassumendo la Wwdc,"Agosto 7, 2006| In Hard, Soft, Life| 5 Comments"
