titolo,pubblicato
Neri per il verde,"Luglio 31, 2007| In Life| 15 Commenti"
Iperriflessioni sul supertesto,"Luglio 30, 2007| In Soft| 4 Commenti"
Del tubo e del Cubo,"Luglio 29, 2007| In Soft| 1 Commento"
La pubblicità è l’anima del popup,"Luglio 28, 2007| In Nomi| 1 Commento"
"Oh cavo, cavo cavo, cavo cavo… / 2","Luglio 27, 2007| In Soft| 4 Commenti"
Verdi e verdoni,"Luglio 27, 2007| In Nomi| 18 Commenti"
Un Enigma… chiara,"Luglio 26, 2007| In Soft| Nessun Commento"
Io l’avevo detto,"Luglio 25, 2007| In Life| 8 Commenti"
Duri che durano,"Luglio 24, 2007| In Soft| 20 Commenti"
Convertiti,"Luglio 23, 2007| In Soft| 2 Commenti"
Là comando io,"Luglio 22, 2007| In Soft| 2 Commenti"
Tra cosmo e incontri,"Luglio 21, 2007| In Soft| 1 Commento"
Fai la cosa giusta,"Luglio 21, 2007| In Soft| 3 Commenti"
Pirati e party,"Luglio 20, 2007| In Nomi, Life| 4 Commenti"
Incontro di fretta,"Luglio 19, 2007| In Soft| 4 Commenti"
Nômen Ômen,"Luglio 19, 2007| In Life| 7 Commenti"
Buone notizie in stampa,"Luglio 18, 2007| In Soft| 2 Commenti"
Qualcosa di grosso,"Luglio 17, 2007| In Hard| 6 Commenti"
Due in più,"Luglio 16, 2007| In Soft| 6 Commenti"
I migliori videoprofessionisti,"Luglio 15, 2007| In Nomi, Work| 5 Commenti"
Venerdì di Pax,"Luglio 14, 2007| In Soft| 4 Commenti"
Open scourge*,"Luglio 14, 2007| In Life| 10 Commenti"
Divide et impera,"Luglio 13, 2007| In Soft| 2 Commenti"
Finalmente uno,"Luglio 12, 2007| In Life| 1 Commento"
Vorrei ma non posso,"Luglio 11, 2007| In Soft| 4 Commenti"
Qual è il suono di un codec solo?,"Luglio 10, 2007| In Soft| 10 Commenti"
Leggende dure a morire,"Luglio 10, 2007| In Soft| 12 Commenti"
Un venerdì spaziale,"Luglio 9, 2007| In Soft| 2 Commenti"
Vecchi e nuovi,"Luglio 9, 2007| In Soft| 3 Commenti"
Protocollo a sorpresa,"Luglio 8, 2007| In Soft| 2 Commenti"
