titolo,pubblicato
Espressioni di settembre,"Settembre 30, 2007| In Soft| 9 Commenti"
Un passaggio iMoviementato,"Settembre 29, 2007| In Soft| 8 Commenti"
L’importante è apparire,"Settembre 28, 2007| In Soft| 2 Commenti"
Giochi per e giochi diviso,"Settembre 27, 2007| In Soft| 11 Commenti"
Non è mai troppo presto,"Settembre 26, 2007| In Life| 5 Commenti"
Qualcosa che rotola come si deve,"Settembre 25, 2007| In Soft| 2 Commenti"
Un passo da supergigante,"Settembre 24, 2007| In Nomi| 6 Commenti"
Missioni compiute,"Settembre 23, 2007| In Life| 2 Commenti"
Il valore dell’esperienza,"Settembre 22, 2007| In Nomi| 5 Commenti"
Una alla volta,"Settembre 21, 2007| In Soft, Nomi| 21 Commenti"
Paghi uno prendi tre,"Settembre 20, 2007| In Hard| 9 Commenti"
"Un blog, un mito","Settembre 20, 2007| In Hard| 1 Commento"
Conosci il tuo nemico,"Settembre 19, 2007| In Blob, Nomi| 6 Commenti"
Cenere alla cenere,"Settembre 18, 2007| In Nomi, Life| 1 Commento"
Lei non sa che dico io,"Settembre 17, 2007| In Hard, Blob, Nomi| 6 Commenti"
Riccioli d’oro,"Settembre 16, 2007| In Soft| 3 Commenti"
Stiamo a vedere,"Settembre 15, 2007| In Hard| 2 Commenti"
Cose da fare da grande,"Settembre 14, 2007| In Soft| 1 Commento"
Booky Woogie,"Settembre 13, 2007| In Hard, Life| 3 Commenti"
Linee di confine,"Settembre 12, 2007| In Soft| 1 Commento"
Sistemi più che programmi,"Settembre 11, 2007| In Soft| 8 Commenti"
La naturale regolarità,"Settembre 10, 2007| In Soft| 2 Commenti"
Automator al lavoro,"Settembre 9, 2007| In Soft| 1 Commento"
Conteggio (in)calorie,"Settembre 8, 2007| In Soft| 5 Commenti"
Avanti il prossimo,"Settembre 7, 2007| In Nomi| 15 Commenti"
"Giunto al fin della licenza, tocco","Settembre 6, 2007| In Hard| 7 Commenti"
Vai all’inferno,"Settembre 6, 2007| In Nomi| Nessun Commento"
L’ora M,"Settembre 5, 2007| In Soft, Nomi| Nessun Commento"
"Open Source, e Fast","Settembre 4, 2007| In Soft, Nomi| 2 Commenti"
Regressioni avanzate,"Settembre 3, 2007| In Soft| 4 Commenti"
