titolo,pubblicato
A tirare troppo la corda,"Giugno 30, 2008| In Hard| 1 Commento"
Sto già dando i numeri,"Giugno 29, 2008| In Nomi, Life| 7 Commenti"
Siti di design,"Giugno 29, 2008| In Soft, Nomi| Nessun Commento"
Safari storico con AppleScript,"Giugno 28, 2008| In Soft| 4 Commenti"
Skim adieu,"Giugno 28, 2008| In Soft| 4 Commenti"
Uova e galline,"Giugno 27, 2008| In Soft| Nessun Commento"
Interno newyorchese,"Giugno 26, 2008| In Nomi, Life| 2 Commenti"
Firefox sartoriale,"Giugno 25, 2008| In Soft| 1 Commento"
Dal grande potere di AppleScript derivano grandi responsabilità,"Giugno 24, 2008| In Soft| 4 Commenti"
E anche gli accessori,"Giugno 24, 2008| In Soft| Nessun Commento"
Ricerche minerarie e perdite di tempo,"Giugno 23, 2008| In Hard, Soft, Life| 5 Commenti"
Sotto il vestito un iceberg,"Giugno 22, 2008| In Unix| Nessun Commento"
Codici e lingue,"Giugno 21, 2008| In Soft| 6 Commenti"
Mai schermati da AppleScript,"Giugno 21, 2008| In Soft| Nessun Commento"
Il fuso di Roma,"Giugno 20, 2008| In Hard, Soft, Nomi| 1 Commento"
"Video, quindi suono","Giugno 19, 2008| In Soft, Nomi| 1 Commento"
Chi fermerà Mogulus,"Giugno 18, 2008| In Soft, Nomi| 2 Commenti"
Un alfabeto dimenticato,"Giugno 18, 2008| In Hard, Blob| 5 Commenti"
La pubblicità non è l’anima del download,"Giugno 18, 2008| In Soft| 2 Commenti"
Direzioni di sviluppo,"Giugno 18, 2008| In Soft, Unix| Nessun Commento"
Lo sapevano tutti,"Giugno 17, 2008| In Work| 4 Commenti"
Tanto per parlarne,"Giugno 17, 2008| In Soft| Nessun Commento"
Gamma di gemme,"Giugno 16, 2008| In Soft| Nessun Commento"
Àifon,"Giugno 16, 2008| In Hard, Blob| 14 Commenti"
Software al… cubo,"Giugno 15, 2008| In Soft, Nomi| Nessun Commento"
AppleScript e ti suono iTunes,"Giugno 14, 2008| In Soft| Nessun Commento"
"AppleScript, dieci anni fa","Giugno 14, 2008| In Soft, Nomi| 1 Commento"
Sono soddisfazioni,"Giugno 13, 2008| In Soft| 5 Commenti"
"Parole, parole, parole","Giugno 12, 2008| In Soft| 1 Commento"
Dieci(cinque-tre) e lode,"Giugno 12, 2008| In Soft| 9 Commenti"
