titolo,pubblicato
Il lavoro a meTeX,"Settembre 30, 2008| In Soft, Nomi| 2 Commenti"
La cartolina,"Settembre 29, 2008| In Nomi, Life| 4 Commenti"
Globalizzazione informatica,"Settembre 29, 2008| In Soft, Nomi| Nessun Commento"
AppleScript al fiore d’arancio,"Settembre 28, 2008| In Soft| Nessun Commento"
Sviluppo e progresso,"Settembre 28, 2008| In Soft, Nomi| 1 Commento"
Nuvole parlanti,"Settembre 27, 2008| In Soft| 1 Commento"
Chuck lo vuole,"Settembre 26, 2008| In Soft| 3 Commenti"
Le azioni fantasma,"Settembre 25, 2008| In Nomi, Work| 6 Commenti"
Aiutare chi è rimasto indietro,"Settembre 24, 2008| In Soft, Life| Nessun Commento"
La ragione per cui,"Settembre 23, 2008| In Soft| 4 Commenti"
Test di resistenza passiva,"Settembre 22, 2008| In Hard, Life| 6 Commenti"
Il futuro delle riviste,"Settembre 22, 2008| In Soft, Nomi| 1 Commento"
"AppleScript, non è quello che sembra","Settembre 21, 2008| In Soft| Nessun Commento"
"Vedo, prevedo, stravedo","Settembre 21, 2008| In Soft, Blob| 2 Commenti"
(Dis)interesse privato,"Settembre 20, 2008| In Hard, Soft| 9 Commenti"
Normale e anormale,"Settembre 19, 2008| In Life| 22 Commenti"
Scomode novità,"Settembre 18, 2008| In Soft, Nomi| 8 Commenti"
Occasioni per venture capitalist,"Settembre 17, 2008| In Soft, Life| 4 Commenti"
Quarantanove software che parla,"Settembre 16, 2008| In Soft| Nessun Commento"
Geni della privacy,"Settembre 15, 2008| In Soft| 4 Commenti"
Quante parole sul copia e incolla,"Settembre 15, 2008| In Hard, Soft| 5 Commenti"
AppleScript duetta con il Terminale,"Settembre 14, 2008| In Soft| Nessun Commento"
"Hey, bgkem?","Settembre 14, 2008| In Soft, Life| Nessun Commento"
Blue(s),"Settembre 13, 2008| In Hard, Nomi, Life| 20 Commenti"
Safari non fa testo,"Settembre 12, 2008| In Soft, Unix| 1 Commento"
Così è se vi mare,"Settembre 11, 2008| In Hard, Life| 5 Commenti"
Ingenui e candidi,"Settembre 11, 2008| In Soft| 7 Commenti"
Tra la via Emilia e Azeroth,"Settembre 10, 2008| In Soft, Life| 10 Commenti"
Chissà quando arriverò in port,"Settembre 9, 2008| In Soft, Unix, Life| 3 Commenti"
01100100 di questi giorni,"Settembre 8, 2008| In Uncategorized| 1 Commento"
