titolo,pubblicato
Comandi… appiccicosi,"Gennaio 31, 2008| In Soft| Nessun Commento"
"Libertà, fraternità, uguaglianze","Gennaio 30, 2008| In Soft| 3 Commenti"
Apple stracciona / aggiornamento,"Gennaio 29, 2008| In Hard, Soft| 20 Commenti"
Un’utopia leggibile,"Gennaio 29, 2008| In Soft| 4 Commenti"
Ricchi con MacBook Air,"Gennaio 28, 2008| In Hard| Nessun Commento"
Allargare i confini,"Gennaio 27, 2008| In Soft| 7 Commenti"
"300 novità, più una","Gennaio 26, 2008| In Soft| 3 Commenti"
La programmazione è musica,"Gennaio 25, 2008| In Blob, Nomi, Life| 1 Commento"
Apple stracciona,"Gennaio 25, 2008| In Soft| 21 Commenti"
Salviamo (in) AppleScript,"Gennaio 24, 2008| In Soft| 4 Commenti"
Meglio stupido che fesso,"Gennaio 23, 2008| In Nomi, Life| 4 Commenti"
In una parola,"Gennaio 22, 2008| In Soft, Nomi, Work| 5 Commenti"
"Uno, nessuno e trecentomila","Gennaio 21, 2008| In Soft, Nomi| 3 Commenti"
Metodi di cattura,"Gennaio 21, 2008| In Soft| 1 Commento"
"Bravo, ma può fare di più","Gennaio 20, 2008| In Soft| 2 Commenti"
Sign O’ The Times,"Gennaio 19, 2008| In Soft| 7 Commenti"
Thin Different,"Gennaio 18, 2008| In Hard| 15 Commenti"
Appello per Filippo,"Gennaio 18, 2008| In Soft, Nomi| 2 Commenti"
Un po’ di comandi AppleScript,"Gennaio 17, 2008| In Soft| 3 Commenti"
Aggiungi un posto a tavoletta,"Gennaio 16, 2008| In Hard, Work| 7 Commenti"
In volo sul Moscone,"Gennaio 15, 2008| In Life| 12 Commenti"
Grandi bugie,"Gennaio 14, 2008| In Hard, Nomi| 2 Commenti"
Le Mail e una notte (buttata),"Gennaio 13, 2008| In Soft, Unix| 4 Commenti"
Scontro tra titani,"Gennaio 12, 2008| In Hard, Nomi| 2 Commenti"
Patente e libretto per favore,"Gennaio 11, 2008| In Soft, Life| Nessun Commento"
"Script Editor, questo ingiustamente sconosciuto","Gennaio 10, 2008| In Soft| 5 Commenti"
Un passo per volta,"Gennaio 9, 2008| In Soft| 3 Commenti"
Luoghi comuni alla prova,"Gennaio 9, 2008| In Soft| 6 Commenti"
Bucare (la condivisione del)lo schermo,"Gennaio 9, 2008| In Soft| 2 Commenti"
Gli anticipatori anticipati,"Gennaio 8, 2008| In Hard, Soft, Blob| 10 Commenti"
