titolo,pubblicato
Per molti ma non per tutti,"Novembre 30, 2008| In Nomi| Nessun Commento"
Spqa,"Novembre 29, 2008| In Soft, Nomi| 8 Commenti"
"AppleScript, sei Unix","Novembre 28, 2008| In Soft| 1 Commento"
Un Paese per vecchi,"Novembre 28, 2008| In Soft| 4 Commenti"
Il piacere della matematica,"Novembre 27, 2008| In Nomi, Life| 3 Commenti"
Direzioni di lavoro,"Novembre 27, 2008| In Soft| 4 Commenti"
Cammina cammina,"Novembre 26, 2008| In Uncategorized| 4 Commenti"
Televisini,"Novembre 26, 2008| In Nomi, Life| Nessun Commento"
Cose di vetro,"Novembre 25, 2008| In Hard, Nomi| 1 Commento"
Figli e figliastri?,"Novembre 24, 2008| In Soft| 1 Commento"
Giochino vecchio fa buon brodo,"Novembre 24, 2008| In Hard, Soft| 2 Commenti"
Quarantatré a quarantadue,"Novembre 23, 2008| In Hard| 7 Commenti"
Fette di torta,"Novembre 22, 2008| In Hard, Soft| 8 Commenti"
AppleScript sempre sul desktop,"Novembre 21, 2008| In Soft| 1 Commento"
Un guasto al gusto,"Novembre 21, 2008| In Hard| 1 Commento"
L’affollamento del numero primo,"Novembre 20, 2008| In Life| 6 Commenti"
Così disse Manuel,"Novembre 20, 2008| In Soft, Nomi| 1 Commento"
Stormrage is Full,"Novembre 19, 2008| In Soft| 3 Commenti"
Chi vaglierà la musica,"Novembre 18, 2008| In Soft, Work| 4 Commenti"
Rimorsi multitouch,"Novembre 17, 2008| In Soft, Life| 8 Commenti"
Quando gli inode vengono al pettine,"Novembre 17, 2008| In Unix| 1 Commento"
Una prova al giorno,"Novembre 16, 2008| In Hard, Life, Work| 2 Commenti"
Un record solido come la roccia,"Novembre 15, 2008| In Soft| Nessun Commento"
Risposte (e nuove domande) da AppleScript,"Novembre 14, 2008| In Soft| 6 Commenti"
Sistemi a confronto,"Novembre 14, 2008| In Soft, Blob| 1 Commento"
Pizzata alla terza,"Novembre 13, 2008| In Life| 8 Commenti"
"Anno nuovo, disco nuovo","Novembre 13, 2008| In Soft, Life| 6 Commenti"
Una rete normale,"Novembre 12, 2008| In Blob, Nomi| Nessun Commento"
Difficile scrivere facile,"Novembre 11, 2008| In Soft| Nessun Commento"
Il design è roba da grandi,"Novembre 10, 2008| In Hard, Nomi, Life| 6 Commenti"
