titolo,pubblicato
A prima vista,"Febbraio 29, 2008| In Soft, Nomi| 5 Commenti"
Per grandi disegni. O piccoli,"Febbraio 28, 2008| In Soft| Nessun Commento"
AppleScript e la moneta cattiva,"Febbraio 28, 2008| In Soft| 4 Commenti"
Regresso al (confronto) infinito,"Febbraio 27, 2008| In Soft, Unix| 3 Commenti"
(Belle) Robe di Kappa,"Febbraio 26, 2008| In Soft, Nomi| 4 Commenti"
Cura per la compulsività,"Febbraio 25, 2008| In Soft| 6 Commenti"
I font portano voti,"Febbraio 24, 2008| In Soft| 8 Commenti"
Cambio della guardia,"Febbraio 23, 2008| In Soft, Unix, Nomi| Nessun Commento"
Non sappia la destra,"Febbraio 23, 2008| In Hard, Life| 3 Commenti"
Sentite in negozio,"Febbraio 22, 2008| In Hard, Blob, Life, Work| 11 Commenti"
"Un passo alla volta, e un passo oltre, in AppleScript","Febbraio 21, 2008| In Soft| Nessun Commento"
Piccole consolazioni,"Febbraio 21, 2008| In Soft, Life| 3 Commenti"
Il web è ancora una scienza,"Febbraio 20, 2008| In Soft, Life| 7 Commenti"
Le trasmissioni riprenderanno il più presto possibile,"Febbraio 19, 2008| In Hard, Life| 15 Commenti"
Una risposta punto per punto,"Febbraio 18, 2008| In Work| 3 Commenti"
Aut aut,"Febbraio 17, 2008| In Hard| 6 Commenti"
Prova a farlo con un Pc,"Febbraio 16, 2008| In Life| 8 Commenti"
La scoperta dell’acqua calda,"Febbraio 15, 2008| In Soft| 7 Commenti"
Un cassetto con l’etichetta in AppleScript,"Febbraio 14, 2008| In Soft| Nessun Commento"
Piccoli grandi cammini,"Febbraio 14, 2008| In Soft, Nomi, Life| 2 Commenti"
Sicuri di essere insicuri?,"Febbraio 13, 2008| In Soft, Unix| 4 Commenti"
Tecnologia e società (sportive),"Febbraio 12, 2008| In Nomi, Life| 4 Commenti"
Spaccare il capello in tre virgola tre,"Febbraio 11, 2008| In Hard| 12 Commenti"
Programmi da non consigliare,"Febbraio 10, 2008| In Soft| 2 Commenti"
Precisione a casaccio,"Febbraio 9, 2008| In Soft, Unix| Nessun Commento"
Colpetti di genio,"Febbraio 8, 2008| In Soft| Nessun Commento"
Da cosa nasce casa,"Febbraio 7, 2008| In Soft, Life| 9 Commenti"
La vacca e il secchio,"Febbraio 6, 2008| In Soft, Nomi| 1 Commento"
Tutto il resto,"Febbraio 5, 2008| In Hard, Nomi, Life| 5 Commenti"
Un giorno in premura,"Febbraio 4, 2008| In Soft| 7 Commenti"
