titolo,pubblicato
A volte è verissimo,"Aprile 30, 2008| In Blob| 3 Commenti"
D-i-c-i-a-n-n-o-v-e-m-i-l-a,"Aprile 30, 2008| In Soft, Life| 7 Commenti"
Giochi di società,"Aprile 29, 2008| In Nomi, Work| 9 Commenti"
Una rimescolata di AppleScript,"Aprile 28, 2008| In Soft| 1 Commento"
Uno schermo e due pollici,"Aprile 28, 2008| In Hard, Life| Nessun Commento"
Non serve mai,"Aprile 27, 2008| In Life| 6 Commenti"
Tipi ancora più in gamba,"Aprile 26, 2008| In Hard, Soft, Nomi| Nessun Commento"
C’è qualcuno alle tue spalle,"Aprile 26, 2008| In Soft| 1 Commento"
Pensiero e azioni,"Aprile 25, 2008| In Life| 3 Commenti"
"C’è dialogo, non sempre","Aprile 24, 2008| In Unix, Work| 7 Commenti"
Velocità apparente,"Aprile 23, 2008| In Soft| 4 Commenti"
Twitter serve a qualcosa,"Aprile 22, 2008| In Soft| 1 Commento"
Scripting con il sorriso,"Aprile 21, 2008| In Soft| 1 Commento"
Lancetta in resta,"Aprile 20, 2008| In Soft| 7 Commenti"
Uno styled editor per me,"Aprile 19, 2008| In Soft| 6 Commenti"
Bello e istruttivo,"Aprile 18, 2008| In Hard, Life| 2 Commenti"
Un posto per ogni nota,"Aprile 17, 2008| In Soft, Work| 6 Commenti"
La musica non cambia,"Aprile 16, 2008| In Soft, Blob, Nomi| Nessun Commento"
Una premuta dolce,"Aprile 15, 2008| In Soft| 1 Commento"
Un AppleScript da far ruotare la testa,"Aprile 14, 2008| In Soft| Nessun Commento"
Immaginarsi un salvaschermo,"Aprile 14, 2008| In Soft, Unix| Nessun Commento"
A pas-seggio,"Aprile 13, 2008| In Hard, Life| 9 Commenti"
Non li fermeremo sul bagnasciuga,"Aprile 13, 2008| In Hard, Nomi, Life| Nessun Commento"
Guai a sottovalutare,"Aprile 12, 2008| In Soft| 8 Commenti"
Tutti fermi con iMovie,"Aprile 12, 2008| In Soft, Life| 3 Commenti"
Quei comandi diversi,"Aprile 11, 2008| In Unix| Nessun Commento"
Tuttobravo,"Aprile 10, 2008| In Nomi| 3 Commenti"
Pubblicità pro grasso,"Aprile 9, 2008| In Blob, Nomi| 1 Commento"
"Fatti, con parole","Aprile 9, 2008| In Hard, Blob, Nomi| Nessun Commento"
Bello e possibile,"Aprile 8, 2008| In Soft| Nessun Commento"
