titolo,pubblicato
Dolcetto o mousetto?,"ottobre 31, 2009| In Life| 1 Commento"
Non è come sembra,"ottobre 31, 2009| In Life, Nomi, Soft| 14 Commenti"
Meglio tardi,"ottobre 31, 2009| In Blob, Hard, Nomi, Soft| 2 Commenti"
AppleScript e il tempo presente,"ottobre 30, 2009| In Soft| 5 Commenti"
Serie… e facete,"ottobre 29, 2009| In Blob, Hard, Life, Nomi| 11 Commenti"
Un multitocco da maestro,"ottobre 29, 2009| In Blob, Hard, Life, Soft| 7 Commenti"
Serie implicazioni,"ottobre 28, 2009| In Life, Work| 4 Commenti"
All’altezza grazie alla slitta,"ottobre 28, 2009| In Soft| 2 Commenti"
"Emulate, emulate, qualcosa resterà","ottobre 27, 2009| In Nomi, Soft| 5 Commenti"
Alla fine rimane solo il cuore,"ottobre 26, 2009| In Life, Nomi, Soft| 2 Commenti"
In attesa del notbook,"ottobre 26, 2009| In Blob, Hard, Life, Nomi| 7 Commenti"
Du’ fa più impression che uan,"ottobre 25, 2009| In Hard, Nomi, Soft, Work| 7 Commenti"
Gran carro e piccolo carro,"ottobre 24, 2009| In Nomi, Soft| 4 Commenti"
Il sorpasso del vettore,"ottobre 23, 2009| In Nomi, Soft| 4 Commenti"
L’inganno per Babbo Natale,"ottobre 22, 2009| In Hard, Life| 1 Commento"
Una visione: il nuovo iMac,"ottobre 22, 2009| In Hard, Life| 3 Commenti"
Oggi in Borsa,"ottobre 22, 2009| In Blob, Life, Nomi| 2 Commenti"
Mano alle novità: Magic Mouse,"ottobre 22, 2009| In Hard, Life| 6 Commenti"
Il senso delle proporzioni,"ottobre 22, 2009| In Hard, Nomi, Soft| Nessun Commento"
La funzione e l’etichetta,"ottobre 21, 2009| In Hard, Life, Nomi, Soft| Nessun Commento"
La sagra degli iTunes killer,"ottobre 20, 2009| In Blob, Nomi, Soft| 17 Commenti"
Idee da pensionare,"ottobre 19, 2009| In Blob, Life, Nomi| 5 Commenti"
I conti con il futuro,"ottobre 19, 2009| In Soft| 1 Commento"
Servizi opzionali,"ottobre 18, 2009| In Soft| Nessun Commento"
Il nome dei disonesti,"ottobre 17, 2009| In Blob, Soft| 6 Commenti"
Spray antifuffa,"ottobre 16, 2009| In Blob, Hard, Soft| Nessun Commento"
Io lo avevo detto,"ottobre 15, 2009| In Hard, Nomi| 12 Commenti"
Quello che le recensioni non dicono,"ottobre 14, 2009| In Hard, Nomi, Soft| 8 Commenti"
TimeCapsule Express,"ottobre 13, 2009| In Blob, Hard| 6 Commenti"
È come ti considerano,"ottobre 12, 2009| In Blob, Hard, Nomi, Soft| 9 Commenti"
