titolo;pubblicato
Fiducia in Apple(Script);9/11/2007
Quando compare il riquadro;8/11/2007
300+ novità: Photo Booth;8/11/2007
"Lontano dagli occhi, vicino al portafogli";8/11/2007
300+ novità: Controlli Censura;7/11/2007
"Uno per tutti, tutti per uno";7/11/2007
300+ novità: networking;6/11/2007
"Cover, Quick";6/11/2007
300+ novità: Internazionale;5/11/2007
Chi li ama li segua;5/11/2007
300+ novità: strumenti;4/11/2007
Mac in svendita;4/11/2007
La Legge del Leopardo;4/11/2007
Leopardissimo;3/11/2007
300+ novità: Imaging;3/11/2007
Il regalo più bello;3/11/2007
300+ novità: iChat;2/11/2007
Sulla pelle dell’Africa;2/11/2007
Leoparderie;1/11/2007
Spazio all’organizzazione;1/11/2007
300+ novità: Mail;1/11/2007
i(l)Web deve essere semplice;1/11/2007
300+ novità: iCal;31/10/2007
"Causa, effetto";31/10/2007
Leopardiade;30/10/2007
Up and Running;30/10/2007
300+ novità: grafica;30/10/2007
Il sito più facile;30/10/2007
300+ novità: Front Row;29/10/2007
Innovazione e sporcizia;29/10/2007
