Posts,Comments
2009-10-24-in-attesa-del-notbook,1
2009-10-24-in-attesa-del-notbook,3
2010-02-08-quelli-degli-antiforfora,2
2012-01-13-de-bello-scrivere,2
2012-02-13-mente-e-carta,22
2013-02-21-per-un-voto-utile,2
2013-03-20-ce-sempre-un-perche,3
2013-05-27-la-fonte-dellispirazione,1
2013-06-13-istinto-e-ragione,11
2013-06-13-una-motivazione-per-volta,4
2013-06-14-q-e-d,2
2013-06-15-il-gioco-delle-copie,6
2013-06-16-la-serie-a-la-serie-b,3
2013-06-17-la-parola-proibita,20
2013-06-18-il-quarto-elemento,3
2013-06-19-mi-manca-la-t-shirt,2
2013-06-20-come-in-un-cartone-animato,3
2013-06-21-la-mala-educazione,9
2013-06-22-la-pena-del-contrappasso,5
2013-06-23-pensieri-semplici,2
2013-06-24-verso-il-contenuto,1
2013-06-25-a-scuola-di-vesper,2
2013-06-26-centri-di-raccolta,1
2013-06-29-grandi-amatori,2
2013-06-30-sul-campo-centrale,3
2013-07-01-un-uomo-una-parallasse,3
2013-07-03-una-giornata-qualsiasi,2
2013-07-04-mosche-cocchiere,2
2013-07-04-mosche-cocchiere,7
2013-07-05-mosche-cocchiere-2,3
2013-07-07-masochismo-cellulare,3
2013-07-08-il-tempo-per-gli-hobby,6
2013-07-09-requisitoria-revival,5
2013-07-10-floppy-nuvole-e-scimmie,6
2013-07-11-pensieri-oziosi,8
2013-07-12-otto-con,8
2013-07-13-la-pagina-della-sfinge,9
2013-07-14-ragioni-per-non-comprare-apple,3
2013-07-15-bugie-grandi-bugie-e-zombi,4
2013-07-16-e-i-tredici-nani,8
2013-07-20-citofonare-paolo,3
2013-07-21-uno-su-mille-ce-la-fa,3
2013-07-25-il-partner-inaspettato,2
2013-07-26-non-e-un-paese-per-vecchi-filesystem,6
2013-07-28-carne-da-canone,2
2013-07-29-la-caduta-sullintestazione,10
2013-07-29-val-piu-la-pratica-dellinterfaccia-grafica,15
2013-07-30-nuovi-mecenati,2
2013-07-31-calca-per-lavorare,15
2013-08-01-prendere-i-voti,2
2013-08-02-guai-a-fermarsi,7
2013-08-03-i-conti-non-tornano,4
2013-08-05-se-manca-time-machine,4
2013-08-06-musica-e-vizio,7
2013-08-08-il-calendario-tuttofare,1
2013-08-09-andai-per-suonare,2
2013-08-10-tutto-scorre,1
2013-08-11-a-rischio-estinzione,2
2013-08-12-un-nuovo-backup,1
2013-08-12-un-nuovo-backup,4
2013-08-19-altro-che-il-mercato,1
2013-08-20-due-modi-per-toccare-il-fondo,2
2013-08-21-prepararsi-per-la-scuola,1
2013-08-23-sotto-il-cofano,2
2013-08-24-leconomia-della-scarsita,4
2013-08-25-potrebbe-andare-peggio,7
2013-08-27-interfaccia-quiz,6
2013-08-28-input-di-emergenza,3
2013-08-29-pazzi-da-museo,6
2013-08-31-la-banda-e-come-lacqua,1
2013-09-01-un-po-come-miss-muretto,5
2013-09-03-mission-accomplished,4
2013-09-04-snobismo-educativo,7
2013-09-05-la-miglio-gioventu,3
2013-09-06-lufficio-preistorico,6
2013-09-08-e-lo-chiamano-micro,25
2013-09-09-manca-il-sorriso,4
2013-09-10-dieci-trucchetti-che-non-ho-capito,5
2013-09-11-se-non-fosse-chiaro,4
2013-09-12-realta-e-fantasia,5
2013-09-15-le-vere-ragioni,4
2013-09-16-la-morte-sua,3
2013-09-17-non-farsi-toccare,15
2013-09-19-non-si-finisce-mai-di-disimparare,3
2013-09-19-non-si-finisce-mai-di-disimparare,4
2013-09-20-non-si-finisce-mai-di-disimparare-2,2
2013-09-21-la-teoria-del-multiverso,2
2013-09-22-sei-anni-di-differenza,2
2013-09-23-premio-competenza,4
2013-09-24-finira-in-pareggio,5
2013-09-25-polizia-informatica,3
2013-09-26-il-bello-di-android,4
2013-09-27-difetto-di-semplificazione,7
2013-09-28-recita-a-soggetto,8
2013-09-29-test-e-taste,5
2013-09-30-uno-splendido-fallire,9
2013-10-01-come-laqua,1
2013-10-02-il-signore-si-che-se-ne-intende,4
2013-10-03-le-volpi-e-luva,2
2013-10-04-chi-bara-e-chi-degrada,6
2013-10-05-oggi-silenzio,3
2013-10-07-diamoci-il-cinque,5
2013-10-08-i-dubbi-si-ricaricano,3
2013-10-09-la-luce-del-passato,3
2013-10-10-tutti-ad-applaudire,3
2013-10-11-realta-virtuale,11
2013-10-13-le-mappe-e-il-refresh,1
2013-10-14-sogno-di-una-morte-di-mezza-estate,12
2013-10-15-io-giro-intorno-al-mondo,19
2013-10-16-pulizie-autunnali,10
2013-10-17-fatica-e-soddisfazione,10
2013-10-18-come-da-programma,2
2013-10-19-a-chi-dare-soldi,4
2013-10-20-comprendiamo-benissimo,5
2013-10-22-le-cose-importanti,3
2013-10-23-tutto-o-niente,7
2013-10-24-il-prezzo-da-pagare,19
2013-10-26-dura-minga,7
2013-10-27-terra-air,3
2013-10-30-le-stelle-stanno-a-scrivere,3
2013-10-31-la-grande-congiura,11
2013-11-01-antologia-del-buonumore-1,1
2013-11-02-antologia-del-buonumore-2,7
2013-11-03-croce-e-delizia-della-copia,6
2013-11-05-soddisfare-il-partner,6
2013-11-05-un-vuoto-per-volta,1
2013-11-06-una-splendida-giornata,2
2013-11-07-chi-non-muore-si-ripete,13
2013-11-08-il-taglio-del-cordone,15
2013-11-09-il-futuro-e-nella-magia,5
2013-11-10-nostalgia-e-canaglie,2
2013-11-11-complessita-contro-durata,3
2013-11-12-travestimenti-da-autore,7
2013-11-15-finte-contraddizioni,3
2013-11-16-a-scuola-di-concetti,9
2013-11-18-il-vero-motivo,5
2013-11-19-il-sole-nei-campi,2
2013-11-19-in-alto-a-sinistra,11
2013-11-20-al-cuore-del-problema,5
2013-11-22-i-lanci-del-disco,5
2013-11-23-un-tocco-di-antico,3
2013-11-24-biglietti-e-bigliettoni,6
2013-11-27-sempre-meglio,6
2013-11-28-ed-e-subito-podcast,3
2013-11-29-conoscenza-inutile,2
2013-11-30-magie-e-burocrazie,1
2013-11-30-magie-e-burocrazie,2
2013-12-02-quote-e-mercati,3
2013-12-03-una-pagina-dal-futuro,2
2013-12-03-una-pagina-dal-futuro,3
2013-12-04-profondo-foglio,9
2013-12-05-il-tempo-della-macchina,8
2013-12-06-sedotti-e-abbandonati,7
2013-12-07-persi-nella-luce,4
2013-12-08-con-i-bambini-di-mezzo,7
2013-12-09-il-mondo-anche-alla-rovescia,3
2013-12-10-al-settimo-giro,4
2013-12-10-redmond-abbiamo-un-problema,5
2013-12-12-studenti-a-tempo-ritrovato,3
2013-12-13-retromomenti,5
2013-12-14-sento-lo-sgretolarsi,1
2013-12-15-software-francescano,2
2013-12-16-il-capannello-di-allarme,8
2013-12-19-un-successo-telefonato,4
2013-12-20-sempre-i-peggiori-che-se-ne-vanno,2
2013-12-23-montato-in-treno,7
2013-12-24-la-tastiera-altrove,2
2013-12-25-due-parole,6
2013-12-26-natale-informatico,2
2013-12-28-vecchie-aspettative,3
2013-12-29-il-quiz-delle-vacanze,10
2013-12-30-un-2014-vuoto-e-noioso,4
2014-01-01-il-giusto-itinerario,3
2014-01-01-ntfs-invisibile,8
2014-01-01-software-francescano-per-ipad,9
2014-01-04-panta-rei,8
2014-01-05-per-farla-breve,2
2014-01-07-il-disevento,6
2014-01-07-quattro-minuti-di-apnea,6
2014-01-10-quelli-che,2
2014-01-11-guidare-linnovazione,6
2014-01-12-trenta-per-sette-centocinquanta,4
2014-01-16-i-due-lati-della-scatola,7
2014-01-17-lanno-che-venne,15
2014-01-19-prezzi-da-pagare,2
2014-01-22-futuro-contro-favole,1
2014-01-23-lettori-potenziali,1
2014-01-24-altro-che-commentatore,4
2014-01-24-nasce-rinasce,1
2014-01-26-bugia-da-tre-decadi,3
2014-01-27-una-scommessa-ancora-a-mezzo,13
2014-01-28-delusioni-a-raffica,2
2014-01-30-le-trasmissioni-riprenderanno,1
2014-01-31-il-mac-che-non-si-vede,7
2014-02-01-per-gentile-concessione,6
2014-02-02-un-mondo-senza-frizione,3
2014-02-03-cure-intensive,7
2014-02-03-veloce-e-silenzioso,8
2014-02-05-se-lo-dice-mario,2
2014-02-06-polo-negativo,13
2014-02-06-una-parabola-dei-talenti,4
2014-02-07-e-la-somma-che-fa-il-totale,2
2014-02-09-quello-che-conta,42
2014-02-09-un-altro-mondo,11
2014-02-12-acquisti-che-durano,4
2014-02-12-voglio-tornare-bambino,4
2014-02-14-il-buco-della-banda,5
2014-02-16-il-senno-di-pochi,4
2014-02-18-nemici-per-sempre,14
2014-02-19-due-anni-un-secolo,18
2014-02-22-una-giornata-di-safer-internet,3
2014-02-23-sconti-mai-visti,3
2014-02-24-varie-da-viaggio,7
2014-02-26-polli-di-batteria,14
2014-02-26-quando-il-gioco-si-fa-cifrato,3
2014-02-27-raddrizzare-le-storture,1
2014-02-28-due-contro-uno,2
2014-02-28-quello-bravo,5
2014-03-05-applicandosi,11
2014-03-06-le-app-dimenticate,2
2014-03-07-la-palestra-dellardimento,3
2014-03-10-quella-visione,2
2014-03-11-sottofondo-virtuale,6
2014-03-12-sette-piu,12
2014-03-13-due-o-tre-link-per-un-gigabyte,13
2014-03-14-indipendente-dallindipendenza,3
2014-03-14-iphone-per-caso,5
2014-03-14-la-caduta-del-prezzo,22
2014-03-16-la-resa-dei-conti,5
2014-03-16-un-bel-tacer-non-fu-mai-programmato,6
2014-03-19-la-musica-non-cambia,7
2014-03-21-langolo-della-collaborazione,4
2014-03-22-il-leone-si-e-risvegliato,5
2014-03-24-app-che-cambiano-il-mondo,15
2014-03-24-il-verso-alleuropa,10
2014-03-25-il-pendolo-e-skim,12
2014-03-28-fai-un-salto,5
2014-03-29-pit-stop,10
2014-03-31-il-lavoro-sporco,11
2014-03-31-innovazione-trasversale,9
2014-04-02-il-pesce-clone,6
2014-04-03-gioca-senza-moderazione,2
2014-04-04-atom-e-bit,15
2014-04-04-mirare-basso,35
2014-04-05-cavo-canem,24
2014-04-07-scherzi-di-cattivo-gusto,14
2014-04-08-originali-a-tutti-i-costi,3
2014-04-09-la-parte-per-il-tutto,5
2014-04-10-cuore-di-mac,7
2014-04-11-bisogna-provare-tutto-nella-vita,36
2014-04-11-e-pensare-che-usb3,6
2014-04-12-il-tempo-e-galantuomo,3
2014-04-13-sms-per-niente-gratis,6
2014-04-15-doppio-lavoro,2
2014-04-16-le-parole-per-dirlo,8
2014-04-17-rimanenze,5
2014-04-18-il-bicchiere-mezzo,5
2014-04-23-la-liberta,5
2014-04-24-la-sfuggente-anteprima,23
2014-04-25-in-proporzione,7
2014-04-25-trova-il-telefono,5
2014-04-27-piu-veloce-di-tex,10
2014-04-28-come-da-programma,8
2014-04-29-volere-e-potere,2
2014-04-30-obsolescenza-programmata,4
2014-05-02-la-prova-del-sei,5
2014-05-06-ufficio-complicazione-affari-semplici,6
2014-05-07-il-senno-di-allora,31
2014-05-09-il-vero-office,8
2014-05-09-leconomia-dellinformazione,27
2014-05-11-de-crescita,10
2014-05-12-come-fatto-il-mondo,13
2014-05-13-solo-una-richiesta,24
2014-05-14-non-ci-parlo-piu,13
2014-05-15-doppio-merito,2
2014-05-16-dettagli-intelligenti,6
2014-05-16-impegni-sovrapposti,4
2014-05-16-la-magia-del-suono,1
2014-05-18-la-fabbrica-dellodio,20
2014-05-19-piu-trentatre-percento,13
2014-05-20-sessanta-giorni-fine-mese,3
2014-05-20-sessanta-giorni-fine-mese,5
2014-05-23-giroscopio-che-vai,6
2014-05-24-una-immagine-di-store,2
2014-05-25-il-wi-fi-piu-pazzo-del-mondo,7
2014-05-26-annuvolamento-mentale,1
2014-05-28-mai-delusi,8
2014-05-29-due-al-prezzo-di-uno,5
2014-05-29-promemoria-postelettorale,3
2014-05-30-programma-italia,1
2014-06-01-smistamento-digitale,4
2014-06-02-corsi-e-ricorsi,11
2014-06-03-continuity,3
2014-06-04-obsolescenza-sprogrammata,6
2014-06-05-pornografia-e-abuso,20
2014-06-06-colpa-di-edo,3
2014-06-06-opposte-intelligenze,1
2014-06-07-steve-non-lo-avrebbe-fatto,8
2014-06-07-tempo-di-rinunce,3
2014-06-09-il-premio-genio,1
2014-06-09-specialisti-al-lavoro,6
2014-06-10-specialisti-al-lavoro-televisivo,12
2014-06-13-apertura-e-confidenza,2
2014-06-13-il-suono-di-una-sola-tavoletta,8
2014-06-15-lo-scatto-della-volpe,6
2014-06-16-mal-comune,4
2014-06-17-quante-deviazioni-hai,2
2014-06-20-il-buon-pastore,11
2014-06-21-ritratto-di-iteratore,6
2014-06-23-fatta-la-tara,8
2014-06-26-passaggi-prevedibili,42
2014-06-26-valore-chiama-valore,2
2014-06-27-lo-zaino-del-ciclista,3
2014-06-29-aspettando-virtualbox,4
2014-06-30-almeno-la-direzione,13
2014-06-30-vecchi-e-giovani,5
2014-07-02-dovere-di-testimonianza,3
2014-07-02-habemus-virtualis,9
2014-07-04-morte-da-mille-ferite,1
2014-07-06-fede-e-ragione,5
2014-07-08-impiegati-di-concetto,7
2014-07-10-rimando-a-questioni-urgenti,9
2014-07-11-resistenza-e-dissipazione,5
2014-07-12-mediamente,3
2014-07-12-parliamone,6
2014-07-13-come-si-fa-a-non-vederlo,5
2014-07-17-contano-i-tasti,4
2014-07-18-la-rete-stanca,8
2014-07-19-civilta-antiche,7
2014-07-20-viva-liniziativa,2
2014-07-22-tempo-di-shopping,2
2014-07-23-morte-per-mille-ferite-ii,1
2014-07-24-se-lo-dicono,4
2014-07-25-generazione-di-fenomeni,6
2014-07-25-tasse-sulla-scuola,7
2014-07-28-centosettantatre-trackpad,2
2014-07-30-il-passato-e-gli-spaghetti,4
2014-08-01-esso-vive,7
2014-08-01-salami-e-salsicce,3
2014-08-02-cause-ed-effetti,4
2014-08-04-il-nuovo-che-avanza,9
2014-08-06-patti-chiari-privacy-lunga,25
2014-08-06-terrorismo-burocratico,3
2014-08-08-patti-chiari,8
2014-08-12-la-rete-fiacca,4
2014-08-13-differenze-di-approccio,7
2014-08-15-docce-fredde,2
2014-08-17-calcolo-delleta,5
2014-08-17-oggi-parto,18
2014-08-19-il-meglio-arriva-ora,2
2014-08-21-dei-dettagli,2
2014-08-22-casi-di-cura,1
2014-08-23-manca-la-controprova,5
2014-08-24-cuori-di-ghiaccio,2
2014-08-25-azioni-che-contano,9
2014-08-26-alimentare-le-supposizioni,3
2014-08-26-come-volevasi-sostituire,2
2014-08-28-ricatto,1
2014-08-30-il-gioco-del-se-fosse,2
2014-08-30-tipografia-senza-fili,7
2014-08-31-un-auspicio-chiacchierato,12
2014-09-02-rifiuti-della-societa,3
2014-09-03-il-cloud-e-nudo,9
2014-09-04-tutti-pazzi-per-jennifer,33
2014-09-05-file-e-veglie,51
2014-09-06-industria-che-vai,13
2014-09-07-preparazione-parauniversitaria,5
2014-09-09-consigli-per-rimandare-gli-acquisti,6
2014-09-10-computer-da-polso,12
2014-09-11-cose-che-succedono,25
2014-09-11-servizi-religiosi,1
2014-09-13-a-bella-posta,15
2014-09-13-il-coraggio-di-cambiare,123
2014-09-15-ce-chi-dice-no,8
2014-09-16-i-denti-del-lupo,2
2014-09-16-la-civilta-della-cucina,5
2014-09-18-cinque-per-otto,4
2014-09-18-tempo-di-uscite,4
2014-09-20-marchi-di-fabbrica,1
2014-09-20-roba-da-bambini,7
2014-09-22-schermo-si,22
2014-09-23-il-trionfo-della-volonta,4
2014-09-24-lo-sventurato-rispose,8
2014-09-24-uno-a-sette,14
2014-09-26-nelle-pieghe-dellisteria,2
2014-09-28-fenomenologia-di-iphone-6,5
2014-09-28-una-risata-vi-pieghera,3
2014-09-30-i-bei-tempi-andati,11
2014-10-01-pesce-di-ottobre,5
2014-10-01-vedo-e-non-vedo,2
2014-10-03-concorso-esterno,3
2014-10-03-te-la-do-io-lobsolescenza,3
2014-10-05-lo-stretto-necessario,5
2014-10-06-cani-vecchi,19
2014-10-06-copia-conferma,1
2014-10-07-dagli-amici-mi-guardi-iddio,3
2014-10-08-ce-bisogno-di-scrivere,4
2014-10-09-lo-slancio-del-disco,7
2014-10-11-facciamo-finta-che,29
2014-10-12-aria-avvelenata,5
2014-10-13-come-eravamo,9
2014-10-14-il-fine-giustifica-i-mezzi,5
2014-10-15-infatti-infetti,25
2014-10-16-non-sono-cose-che-si-fanno,6
2014-10-16-un-bisogno-terribile,9
2014-10-17-sottigliezze,4
2014-10-21-tremenda-invidia,2
2014-10-22-uno-vale-laltro,8
2014-10-23-il-settimo-cambio,11
2014-10-24-e-adesso-la-creative-suite,8
2014-10-25-amore-per-cosi-poco,7
2014-10-26-tre-segni,3
2014-10-27-ottanta-mac,5
2014-10-28-veramente-troppo-basic,15
2014-10-29-qualcosa-di-meno-basic,5
2014-10-30-se-vendono-come-scrivono,6
2014-11-01-preoccupazione-zero,5
2014-11-02-vivi-che-camminano,42
2014-11-03-tempi-di-apertura,4
2014-11-04-musica-gia-sentita,3
2014-11-05-mi-pezzo-ma-non-mi-spiego,13
2014-11-06-meglio-un-ipad,4
2014-11-07-panta-rei,4
2014-11-08-angolo-arrotondato-lettura,6
2014-11-09-betabloccanti,2
2014-11-11-se-me-lo-dicevi-prima,1
2014-11-13-la-terra-della-confusione,1
2014-11-13-la-terra-della-confusione,41
2014-11-13-volutamente-nebuloso,2
2014-11-14-du-is-meglio-che-uan,1
2014-11-14-du-is-meglio-che-uan,2
2014-11-16-il-poliziotto-buono,3
2014-11-18-cambio-di-vocale,6
2014-11-19-quelli-sbagliati,6
2014-11-20-indice-verso,1
2014-11-21-sondaggio-ozioso,8
2014-11-22-oggetti-senza-lustro,6
2014-11-23-a-chi-server,1
2014-11-23-un-altro-argomento-della-diagonale,16
2014-11-25-pixel-specifici,16
2014-11-26-la-spesa-in-istruzione,2
2014-11-26-promemoria-costante,2
2014-11-27-posizioni-vacanti,3
2014-11-30-italia-libre,2
2014-11-30-modello-per-genitori,7
2014-12-01-conflitto-di-interessi,9
2014-12-03-nessuno-ci-guadagna,14
2014-12-04-il-mito-sbagliato,4
2014-12-04-senza-un-soldo-in-tasca,1
2014-12-06-la-solita-musica,4
2014-12-07-cera-una-volta-linfografica,3
2014-12-07-fontascienza,3
2014-12-10-ce-posta-per-tre,5
2014-12-11-in-cerca-di-multiplayer,5
2014-12-12-il-primo-perche,4
2014-12-12-voli-di-fantasia,1
2014-12-14-larte-inconoscibile,3
2014-12-14-le-tre-meta-della-mela,4
2014-12-16-tutte-insieme-ora,4
2014-12-17-non-solo-macworld,5
2014-12-18-non-visto-in-tv,4
2014-12-20-lo-standard-deindustriale,11
2014-12-21-per-colpa-di-chi,5
2014-12-22-auguri-di-realta,2
2014-12-23-restano-solo-gli-auguri,6
2014-12-25-piccole-speranze,1
2014-12-27-falsi-sentimentalismi,5
2014-12-27-senza-ironia,4
2014-12-27-sic-transit,4
2014-12-28-massa-indietro,11
2014-12-29-nuovi-orizzonti,5
2014-12-30-anno-nuovo,1
2015-01-01-in-televisione-con-il-cervello-acceso,6
2015-01-01-pessime-carte,5
2015-01-02-scado-dalle-nuvole,8
2015-01-04-linevitabile-proposito,13
2015-01-06-lo-sprint-infinito,5
2015-01-08-parliamo-di-marketing,3
2015-01-11-ventanni-dopo,2
2015-01-12-un-altro-mondo,10
2015-01-13-fine-emergenza,3
2015-01-14-obiettivo-il-nulla,3
2015-01-16-la-valle-dei-tempi,6
2015-01-17-ce-sempre-una-prima-volta,1
2015-01-18-di-che-preoccuparsi,2
2015-01-20-vulnerabile-allovvio,1
2015-01-21-autocelebrazione-e-zio-walt,8
2015-01-21-tutti-i-dilettanti-del-presidente,3
2015-01-23-nati-vecchi,7
2015-01-24-aquila-bianca,4
2015-01-27-un-colpo-al-darwinismo,2
2015-01-29-quel-che-non-riluce,9
2015-01-30-basta-il-pensiero,1
2015-01-31-scuola-ultima-frontiera,6
2015-02-01-arm-in-pugno,7
2015-02-02-un-saluto-ai-patrioti,3
2015-02-03-il-dono-delle-lingue,4
2015-02-05-una-cascata-di-tostapane,2
2015-02-06-materiale-da-ripasso,1
2015-02-08-di-vincolarsi,1
2015-02-09-escluso-limpossibile,2
2015-02-09-tutto-programmato,7
2015-02-09-vecchia-maniera,2
2015-02-12-la-frutta-bacata,10
2015-02-12-scrittura-creativa,9
2015-02-14-niente-da-perdere,11
2015-02-16-calendario-scolastico,9
2015-02-16-la-candela-che-brucia-da-due-parti,7
2015-02-16-sempre-i-soliti,4
2015-02-18-ce-posta-per-apple,4
2015-02-18-fiction-e-realta,1
2015-02-21-gatti-e-volpi,2
2015-02-22-il-design-e-come-funziona,1
2015-02-22-una-rubrica-che-mancava,2
2015-02-24-le-penultime-parole-famose,10
2015-02-28-strane-equazioni,7
2015-03-01-a-titolo-personale,3
2015-03-02-copia-dal-vivo,18
2015-03-03-il-mestiere-di-apple,2
2015-03-04-la-seconda-occasione,4
2015-03-05-ci-facciamo-sempre-riconoscere,7
2015-03-06-loro-di-cupertino,7
2015-03-06-prese-in-giro,2
2015-03-08-cinque-anni-dopo,9
2015-03-08-e-giunta-lora,13
2015-03-10-trascuratezze,10
2015-03-11-attivita-di-nicchia,15
2015-03-12-lassillo-dellora,9
2015-03-13-ormoni-e-ragione,2
2015-03-15-trentotto-usi-orari,2
2015-03-16-varianze-e-invarianze,8
2015-03-18-un-mondo-migliore,14
2015-03-19-piccolo-e-bello,9
2015-03-20-la-linea-morbida,1
2015-03-20-la-pubblica-amministrazione-contro-gli-esseri-senzienti,2
2015-03-23-per-via-di-levare,10
2015-03-23-si-diventa,2
2015-03-25-sei-aperture,3
2015-03-26-vieni-avanti-killerino,8
2015-03-27-nelle-serie-inferiori,13
2015-03-29-non-e-una-apple-per-vecchi,1
2015-03-30-convegnisticamente,2
2015-03-31-corsa-al-ribasso,1
2015-03-31-corsa-al-ribasso,6
2015-04-01-forza-quattro,23
2015-04-02-aprile-il-terminale,7
2015-04-03-la-palestra-dellardimento,1
2015-04-03-perseverare-diabolicum,2
2015-04-04-lavoro-di-gruppo,2
2015-04-06-chi-di-piega-ferisce,5
2015-04-07-tempi-moderni,1
2015-04-08-come-volevasi-impaginare,5
2015-04-09-chi-in-orario,9
2015-04-10-quasi-senza-dirlo,16
2015-04-10-recinti-e-dettagli,2
2015-04-11-una-storia-semplice,7
2015-04-14-i-pifferi-delle-montagne-cinesi,2
2015-04-15-chi-ricerca-prova,4
2015-04-15-il-sorpasso,25
2015-04-17-so-long-john,6
2015-04-19-quel-vecchio-aggettivo,6
2015-04-20-e-in-cambio-pretendete,1
2015-04-21-multimediale-innocenza,4
2015-04-23-sbagliando-si-impara,12
2015-04-25-otto-colpi-da-maestro,2
2015-04-28-dieci-per-duemila,1
2015-04-29-scale-temporali,4
2015-04-30-imprese,5
2015-04-30-lallineamento-e-molto,1
2015-05-02-il-peso-dei-dati,4
2015-05-03-aperto-non-troppo,3
2015-05-05-estremo-oriente,3
2015-05-06-succo-di-angoscia,5
2015-05-07-la-coerenza-innanzitutto,1
2015-05-08-il-programma-tuttofare,7
2015-05-09-a-che-cosa-serve-apple-watch,5
2015-05-10-il-primo-errata,6
2015-05-10-un-quarantotto,5
2015-05-11-compagnie-limitate,3
2015-05-13-un-emoji-vale-mille-sequenze,3
2015-05-14-giornalisti-e-radio-shack-amatori,3
2015-05-16-lezioni-da-copiare,4
2015-05-19-false-equivalenze,1
2015-05-19-professionisti-del,6
2015-05-21-le-antenne-in-testa,1
2015-05-21-ma-tutto-questo-da-lunedi,1
2015-05-22-sorveglianza-a-poco-prezzo,2
2015-05-24-sostiene-vignoli,10
2015-05-25-arrangiarsi-a-distanza,11
2015-05-27-san-francisco-aiutaci-tu,3
2015-05-28-indispensabilmente-inutile,4
2015-05-28-persino-ibm,2
2015-05-30-apple-non-facit-saltus,3
2015-05-31-il-case-e-risolto,10
2015-06-01-due-indizi-fanno-una-presentazione,40
2015-06-02-un-solo-annuncio,4
2015-06-03-ambienti-sconnessi,30
2015-06-04-i-cento-giorni,3
2015-06-05-trasparenze,20
2015-06-06-prossimamente-su-questi-schermi,2
2015-06-07-eventualmente,5
2015-06-07-forever-palatino,1
2015-06-09-dove-tutto-nasce,16
2015-06-09-sanno-e-non-dicono,4
2015-06-11-il-massimo-del-minimo,1
2015-06-12-ci-vorranno-giorni,4
2015-06-12-una-lezione-di-semplicita,12
2015-06-14-senza-margini,5
2015-06-15-il-voodoo-e-fuori-mercato,6
2015-06-15-sexy-in-nero,2
2015-06-17-amori-e-batterie,2
2015-06-18-ci-piace-vincere-facile,3
2015-06-19-lei-sa-chi-sono-io,4
2015-06-22-la-questione-e-aperta,8
2015-06-23-accesso-mai-eccesso,6
2015-06-25-mestieri-e-programmi,6
2015-06-26-un-amore-banale,3
2015-06-28-vale-tutto,6
2015-06-30-una-parentesi-sperimentale,16
2015-07-01-datemi-tempo,8
2015-07-03-tanti-programmi-tanto-onere,19
2015-07-04-materia-ed-energia,2
2015-07-05-lettera-libera,9
2015-07-06-anno-dopo-anno,2
2015-07-08-belle-liberta,2
2015-07-09-pareri-e-dispareri,5
2015-07-12-il-minimo-dispensabile,3
2015-07-12-il-minimo-dispensabile,5
2015-07-12-nostalgia-e-canaglia,5
2015-07-12-nove-mesi-per-nascere,1
2015-07-12-nove-mesi-per-nascere,2
2015-07-13-controcorrente,1
2015-07-14-astenersi-perdisoldi,1
2015-07-14-cinque-anni-senza-una-data,7
2015-07-15-obsoleto-chi,22
2015-07-18-con-la-testa,2
2015-07-19-i-soldi-non-chiamano-i-soldi,2
2015-07-20-da-questo-mobile-non-sento,9
2015-07-20-lidea-del-cliente,5
2015-07-22-prezzo-uguale-lavoro,2
2015-07-23-cambiano-i-tempi,9
2015-07-25-la-differenza-non-algebrica,8
2015-07-26-tre-virgole,1
2015-07-27-dicono-e-non-sanno,3
2015-07-28-se-telefonando,1
2015-07-31-quasi-vacanza,2
2015-08-01-magia-e-pdf,8
2015-08-02-chi-apprezza-compra,16
2015-08-03-aspettali-al-varco,4
2015-08-06-i-figli-degli-altri,2
2015-08-06-sollecito-software-1,9
2015-08-08-come-non-usa,2
2015-08-08-risate-da-paura,7
2015-08-09-sotto-la-doccia,7
2015-08-12-niente-di-nuovo-sul-fronte,10
2015-08-12-quella-volta-che,23
2015-08-13-se-avanzo,9
2015-08-15-con-i-se-e-qualche-ma,6
2015-08-15-per-sempre,4
2015-08-15-widget-e-non,8
2015-08-17-widget,11
2015-08-19-i-gioielli-della-corona,5
2015-08-19-la-fine-dell-innocenza,6
2015-08-20-direi-che-dura,2
2015-08-20-pace-e-posta,3
2015-08-23-il-tempo-ritrovato,3
2015-08-24-al-servizio-di-sua-contabilita,6
2015-08-25-lavori-in-corso-in-piazza-in-darsena,5
2015-08-26-la-discrezione-e-tutto,1
2015-08-27-una-cosa-per-volta,8
2015-08-28-s-pen-contra-spem,5
2015-08-29-la-fascetta-del-vicino-e-sempre-piu-lunga,5
2015-08-30-invenzione-e-innovazione,3
2015-08-31-ritrovare-lo-stimolo,2
2015-09-01-oggi-e-un-bel-giorno-per-morire,7
2015-09-02-le-mani-nello-spork,1
2015-09-03-una-grandezza-nelle-piccole.cose,5
2015-09-04-il-livello-e-sempre-quello,12
2015-09-05-quel-gran-pezzo-dell-imore,12
2015-09-07-dal-sorgente-alla-fonte,2
2015-09-08-due-app-un-gusto,2
2015-09-09-disobbedire-al-cubo,1
2015-09-10-una-realta-intricata,2
2015-09-11-ausilio-alla-lettura,3
2015-09-12-tra-il-2015-e-il-1520,3
2015-09-13-mai-filmati-prima,10
2015-09-14-cinquanta-e-sentirli,26
2015-09-15-gli-asparagi-e-apple-pencil,4
2015-09-16-interessi-esclusi,2
2015-09-17-fantascienza-fantasia-farneticazione,12
2015-09-18-ok-la-crisi-pero,4
2015-09-19-asparagi-alla-prova,7
2015-09-20-divide-et-non-dispera,10
2015-09-21-xcode-fa-sul-serio,4
2015-09-22-basta-pagare,4
2015-09-23-la-lezione-di-mario,4
2015-09-23-tre-salti,14
2015-09-25-cosi-piccolo-e-trascurato,1
2015-09-26-condannati-a-ripetere,1
2015-09-28-niente-siesta-per-watchos-2,1
2015-09-29-liberta-che-non-ci-sono,7
2015-09-30-clan-in-espansione,5
2015-10-01-altre-cornici,4
2015-10-03-editori-traditori,8
2015-10-04-difficile-fare-tredici,6
2015-10-05-controsensi,3
2015-10-06-umano-comprensibile-e-sbagliato,5
2015-10-07-il-costo-delle-ossessioni,39
2015-10-08-la-lunga-attesa-di-runescape,4
2015-10-09-la-lezione-aurea,2
2015-10-10-116-tentativi-di-imitazione,30
2015-10-13-iphone-segreto,3
2015-10-14-le-recensioni-che-contano,1
2015-10-15-rimane-troppo-farraginoso,3
2015-10-16-sicuramente-una-svista,10
2015-10-17-avvelenamento-da-litio,2
2015-10-18-trentanni-dopo,10
2015-10-19-avvelenamento-da-litio-ii,2
2015-10-20-dentro-la-gamma,2
2015-10-21-non-si-esce-vivi-dagli-anni-ottanta,12
2015-10-22-almeno-dritto,9
2015-10-23-video-giochi,1
2015-10-24-passo-e-chiudo,14
2015-10-25-post-pre-inaugurazione,4
2015-10-26-and-the-winner-is,2
2015-10-27-il-traguardo-dei-cinquanta,3
2015-10-28-vita-da-passcode,7
2015-10-29-ecco-perche,2
2015-10-30-versi-compilabili,6
2015-10-31-riferimenti-culturali,25
2015-11-03-very-good-very-bad,20
2015-11-05-per-rinfrancar-lo-spirito,3
2015-11-06-cavi-amari,1
2015-11-07-antico-e-moderno,2
2015-11-08-fuori-programma,5
2015-11-09-scripting-pulito,5
2015-11-10-scala-uno-a-quindici,7
2015-11-11-il-futuro-del-portatile,2
2015-11-12-tic-tog,12
2015-11-13-il-gioco-delle-differenze-societarie,3
2015-11-15-utile-e-professionale,5
2015-11-16-a-futura-memoria,6
2015-11-17-tutti-i-tablet-sono-uguali,8
2015-11-18-culo-e-camicia,4
2015-11-21-prodotti-di-punta,3
2015-11-22-arte-amanuense,5
2015-11-23-aggiunte-concrete,4
2015-11-24-brutte-facce,2
2015-11-25-per-un-mac-in-piu,7
2015-11-26-smetto-quando-voglio,5
2015-11-27-dovere-e-potere,7
2015-11-28-quando-i-computer-avevano-la-coda,8
2015-11-30-riferimento-renna,9
2015-12-01-questione-di-presupposti,11
2015-12-02-la-liberta-richiede-polso,9
2015-12-03-c-e-sempre-un-mac,6
2015-12-04-il-pelo-nello-hashtag,15
2015-12-05-programmatori-giapponesi,14
2015-12-06-quel-tempo-dei-calendari,5
2015-12-07-senza-offesa-per-nessuno,9
2015-12-08-il-servizio-da-dodici,2
2015-12-10-la-danza-dell-update,5
2015-12-11-la-cifra-della-moda,5
2015-12-12-canali-di-scolo,4
2015-12-13-le-batterie-sono-tutte-uguali,4
2015-12-14-di-ventotto-ce-n-e-una,8
2015-12-15-con-quella-grafica-puo-dire-cio-che-vuole,5
2015-12-16-librerie-e-librai,5
2015-12-17-avvistamento-renne,1
2015-12-18-la-questione-dei-termini,8
2015-12-19-i-modi-contano,24
2015-12-20-stelle-di-natale,2
2015-12-22-una-giornata-come-tante,2
2015-12-23-modernariato-al-lavoro,13
2015-12-24-tre-cose,8
2015-12-25-festa-e-basta,6
2015-12-27-iniziamo-da-uno,3
2015-12-29-la-conferma-della-regola,5
2015-12-31-a-sproposito,5
2016-01-03-un-anno-duro-per-pochi,4
2016-01-05-perche-no,2
2016-01-06-pianto-natale,17
2016-01-07-a-domanda-non-rispondiamo,5
2016-01-09-in-svizzera-ora,2
2016-01-10-metti-una-sera-con-penflip,5
2016-01-11-chiudiamo-una-parentesi,7
2016-01-12-la-seconda-parentesi,4
2016-01-13-sense-of-doubt,3
2016-01-14-un-posto-migliore,7
2016-01-15-toca-per-credere,4
2016-01-16-chiavi-in-mano,7
2016-01-18-uno-che-ci-pensava,3
2016-01-20-la-nuova-disobbedienza,7
2016-01-21-codice-rotto,4
2016-01-23-il-mistero-dell-rss-perduto,11
2016-01-24-con-il-tempo-e-con-i-soldi,1
2016-01-25-figli-di-un-office-minore,14
2016-01-27-minuti-di-sospensione,1
2016-01-28-prima-e-dopo,3
2016-01-29-parlare-resta-gratis,4
2016-01-30-a-e-m,5
2016-01-31-amore-e-sintonia,7
2016-02-01-insolito-solitario,2
2016-02-02-solo-testo,2
2016-02-03-pro-bono,12
2016-02-04-un-nome-un-destino,13
2016-02-05-aprirsi-al-lenovo,23
2016-02-06-lascia-o-raddoppia,9
2016-02-07-apple-abbandona-i-professionisti,5
2016-02-08-in-tono-minore,5
2016-02-09-navigazione-pulita,2
2016-02-10-a-carattere-enciclopedico,8
2016-02-14-un-piccolo-grande-neo,2
2016-02-15-tutti-i-browser-del-presidente,18
2016-02-16-la-percezione-del-danno,2
2016-02-17-il-coraggio-e-il-valore,13
2016-02-18-leica-q-e-la-crisi,6
2016-02-19-il-corriere-degli-intrusori,16
2016-02-20-esperti-per-caso,8
2016-02-21-a-valle-eco,7
2016-02-22-il-vecchio-il-nuovo-e-java,3
2016-02-23-per-chi-suona-il-timer,2
2016-02-24-provaci-ancora-zio-sam,1
2016-02-24-provaci-ancora-zio-sam,2
2016-02-25-omaggio-alla-catalogna,9
2016-02-26-in-attesa-del-risultato-finale,10
2016-03-01-molti-milioni-di-opinioni,6
2016-03-02-meno-di-cosi,2
2016-03-03-il-concetto-di-chiusura,1
2016-03-04-chi-sta-bene-e-chi-sta-male,6
2016-03-06-se-ci-fosse-un-critico,8
2016-03-07-piu-chiaro-di-cosi,2
2016-03-08-famolo-deduplicato,19
2016-03-09-nel-tempo-di-uno-zip,1
2016-03-10-anello-debole,4
2016-03-11-professionisti-addio,4
2016-03-12-sviluppi-emozionanti,1
2016-03-13-ricomincio-da-nove,11
2016-03-14-con-tanti-auguri,3
2016-03-15-la-rosa-delle-ventole,6
2016-03-16-aggiornato-un-papa-se-ne-fa-un-altro,10
2016-03-17-prova-di-intelligenza,23
2016-03-18-uno-lo-sente,3
2016-03-19-inconsapevolmente-vendonsi,4
2016-03-20-crescita-e-sviluppo,2
2016-03-21-il-difetto-sta-nel-maniaco,8
2016-03-22-non-peggior-sordo,13
2016-03-23-incolla-ultima-frontiera,4
2016-03-24-signori-mezza-eta,4
2016-03-25-partite-da-evitare,6
2016-03-26-temi-dimenticati,2
2016-03-28-una-cartolina,11
2016-03-29-da-cosa-nasce-cosa,5
2016-03-30-anno-tremila,12
2016-03-31-barra-a-dritta,37
2016-04-01-media-aetate,2
2016-04-03-mai-dire-mai-mai-mai,8
2016-04-05-chiusi-per-virus,10
2016-04-06-due-sono-tante,4
2016-04-07-oggi-ho-imparato,2
2016-04-10-cryptolocker-no-torrentlocker,6
2016-04-13-mac-e-banche-private,3
2016-04-14-fuori-il-secondo,6
2016-04-15-programmazione-aperta,7
2016-04-16-sulla-cattiva-strada,18
2016-04-17-uno-vale-unico,1
2016-04-18-la-reinvenzione-della-sicurezza,5
2016-04-20-stampante-stai-serena,4
2016-04-21-religioni-contro-la-barbarie,2
2016-04-22-tre-mele,2
2016-04-23-cose-che-voi-umani,20
2016-04-24-ricerca-e-ritrova,2
2016-04-25-la-visione-del-futuro-da-vicino,7
2016-04-26-colore-aperto,8
2016-04-27-ieri-e-domani,5
2016-04-28-le-informazioni-sono-scarse,1
2016-04-29-il-recente-keynote,10
2016-05-01-mancanze-di-collaborazione,1
2016-05-02-la-tristezza-del-replicante,6
2016-05-03-mai-fidarsi,3
2016-05-04-facciamolo-automatico,2
2016-05-05-burocrazia-fa-da-se,3
2016-05-06-invasione-al-porto,2
2016-05-07-il-bancomat-oggi,5
2016-05-08-targa-oro,9
2016-05-09-il-neo-di-apple,8
2016-05-11-viva-la-differenza,3
2016-05-12-la-macina-del-tempo,12
2016-05-13-abbiamo-due-problemi,1
2016-05-14-insegnamento-ovvio,21
2016-05-15-la-posizione-del-problema,31
2016-05-16-raccolta-differenziata,1
2016-05-17-e-ora-qualcosa-di-completamente-diverso,9
2016-05-18-guerre-di-religione,9
2016-05-19-ipad-contro-macbook,4
2016-05-20-la-dura-verita,11
2016-05-21-tre-volte-interessante,2
2016-05-23-rete-e-progresso,6
2016-05-26-passare-all-incasso,5
2016-05-27-vorrei-tornare-al-liceo,4
2016-05-28-quei-tredici-grammi,6
2016-05-30-leggere-il-passato,5
2016-06-03-sbagliato-si-impara,15
2016-06-04-volente-o-nolente,8
2016-06-05-aggiornamenti-rapidi,3
2016-06-06-il-rumore-di-un-clic,13
2016-06-07-app-che-vorrei,2
2016-06-08-la-commedia-degli-errori,1
2016-06-09-in-transito-dalla-social-media-week,5
2016-06-10-nel-dubbio-striscia,12
2016-06-11-il-dopo-apple,3
2016-06-13-sulla-buona-strada,3
2016-06-14-vale-una-wwdc,6
2016-06-15-un-kickstarter-per-cambiare-il-libro,19
2016-06-16-sfida-sotto-i-radar,12
2016-06-17-un-prodotto-di-spessore,1
2016-06-18-mezzi-e-fini,6
2016-06-21-la-lunga-marcia-verso-il-nulla,2
2016-06-22-pro-e-contro,3
2016-06-26-pro-come-una-matita,4
2016-06-29-all-inizio-fa-un-po-male,6
2016-06-30-faticosa-e-straordinaria-liberta,5
2016-07-01-carta-da-forno,3
2016-07-02-stessa-spiaggia-spesso-mare,5
2016-07-03-o-word-o-buonsenso,12
2016-07-04-evouzione-continua,2
2016-07-05-pigiatasti-addio,2
2016-07-06-bugie-grandi-bugie-e-dati-exif,6
2016-07-07-dare-il-sangue-per-un-gioco,2
2016-07-08-twitter-e-la-microfrustrazione,4
2016-07-09-professionisti-e-ciechi,2
2016-07-10-il-nuovo-dittatore,13
2016-07-11-quando-il-pregiudizio-chiama,10
2016-07-12-di-fuoco-e-di-ghiaccio,1
2016-07-14-letture-arretrate,1
2016-07-15-la-linea-sottile,2
2016-07-17-fiducia-e-sicurezza,1
2016-07-19-una-soluzione-in-cerca-di-problemi,5
2016-07-21-follow-the-money,2
2016-07-23-ubiquo-contro-versatile,10
2016-07-24-un-minuto-di-riavvolgimento,13
2016-07-25-vedi-microsoft-e-poi-muori,15
2016-07-27-i-signori-bonaventura,1
2016-07-28-da-super-apple-a-cuore-di-mela,12
2016-07-29-i-tre-giorni-del-cuore,7
2016-07-30-quarantotto-ore,7
2016-07-31-ventiquattro,6
2016-08-01-l-arte-della-fuffa,9
2016-08-03-due-premesse-fa,2
2016-08-07-ti-scrivo-una-presentazione,11
2016-08-08-un-voto-da-cinque-euro,6
2016-08-09-impressioni-di-agosto,12
2016-08-11-dove-non-si-vede,17
2016-08-12-un-negozio-da-sviluppare,2
2016-08-13-che-cosa-ci-insegna,3
2016-08-15-prendiamoci-tempo,3
2016-08-16-back-to-school,5
2016-08-17-la-chiave-della-bottiglia,1
2016-08-19-estivita,2
2016-08-20-per-conciliare-il-sonno,3
2016-08-24-la-sfida-in-differita,1
2016-08-25-quello-era-un-orologio,3
2016-08-26-non-servono-dei-geni,12
2016-08-27-musiche-dimenticate,3
2016-08-28-finito-il-vesper,8
2016-08-31-un-posso-falso,17
2016-09-01-trasmissione-a-catena,7
2016-09-02-il-punto-e-la-barra,11
2016-09-03-famolo-modulare,6
2016-09-04-l-enigma-dell-ora,3
2016-09-05-al-massimo-gli-esattori,3
2016-09-06-air-o-non-air-questo-e-il-problema,6
2016-09-07-a-tutto-keynote,9
2016-09-10-beati-gli-ultimi,3
2016-09-11-basta-la-parola,3
2016-09-12-un-keynote-e-tre-considerazioni,7
2016-09-13-la-migliore-analisi,4
2016-09-14-concorrenza-asimmetrica,6
2016-09-15-sorvoli-problematici,3
2016-09-16-liquido-che-inebria,1
2016-09-17-la-fine-di-avadon,2
2016-09-19-che-banda,8
2016-09-20-con-permesso,4
2016-09-21-rivali-terminali,3
2016-09-22-alleggerire-la-pressione,4
2016-09-23-a-tutto-schermo,17
2016-09-25-li-stiamo-perdendo,20
2016-09-26-a-brutta-posta,11
2016-09-27-metriche-a-confronto,5
2016-09-28-la-pazienza-di-sabino,6
2016-09-29-un-messaggio-di-innovazione,3
2016-09-30-nuovi-canali,15
2016-10-01-gossip-irreali,12
2016-10-02-cronache-dal-dopobomba,2
2016-10-03-la-leonessa-e-il-dilettante,12
2016-10-04-lo-scettico-e-servito,3
2016-10-05-carta-conta,4
2016-10-06-bug-show,5
2016-10-07-corri-corri-gamberetto,9
2016-10-08-comandi-ad-alta-densita,1
2016-10-09-tipografia-gratuita,3
2016-10-10-bug-solution-show,6
2016-10-11-il-fuoco-dentro,7
2016-10-12-il-computer-del-futuro,1
2016-10-14-scrive-bene-chi-scrive-giusto,3
2016-10-16-al-tocco-del-gambero,3
2016-10-17-futuri-possibili,1
2016-10-18-presenti-istantanei,3
2016-10-20-in-ditta-non-lo-sanno,9
2016-10-23-memoria-musicale,27
2016-10-24-i-tre-giorni-del-monitor,2
2016-10-25-le-dimensioni-che-contano,7
2016-10-26-commenti-a-tavola,5
2016-10-27-dove-va-homekit,2
2016-10-29-cattiverie-accessibili,6
2016-10-30-tecnologia-immateriale,3
2016-10-31-fatti-non-foste-per-essere-ignorati,16
2016-11-01-il-suono-nella-storia,5
2016-11-02-letture-della-mente,1
2016-11-03-furia-cieca,7
2016-11-04-per-molti-ma-non-per-tutti,4
2016-11-05-mamma-guarda-due-mani,1
2016-11-06-lo-scontrino-sui-prezzi,12
2016-11-09-umani-e-algoritmi,2
2016-11-10-condannati-a-ripetere,2
2016-11-11-pallone-gonfiato,3
2016-11-12-la-linea-zero-sedici,12
2016-11-13-il-senno-di-mai,6
2016-11-14-alla-radio-e-in-tribuna,14
2016-11-15-fatto-cento-facciamo-centoquattro,2
2016-11-16-zdziarski-a-meta,3
2016-11-18-proprio-pro,6
2016-11-19-la-parola-ai-technici,7
2016-11-20-aut-out,3
2016-11-21-ricchi-e-poveri,7
2016-11-23-la-regione-e-l-intelletto,4
2016-11-24-a-tutto-c-e-un-limite,17
2016-11-24-senza-rete,6
2016-11-26-wireless-is-more,3
2016-11-28-i-due-giorni-del-codice,2
2016-11-29-mi-mancano-i-titoli,2
2016-11-30-fallo-di-mano,6
2016-12-01-la-porta-ovunque,1
2016-12-02-preparati-al-peggio,8
2016-12-03-non-cambia-mai,4
2016-12-04-eterna-giovinezza,9
2016-12-05-il-blog-e-morto-viva-il-blog,7
2016-12-06-la-fine-di-unix,3
2016-12-07-la-linea-e-libera,12
2016-12-07-una-sconfitta-cocente,2
2016-12-11-a-che-cosa-serve,2
2016-12-11-a-che-cosa-serve,3
2016-12-12-vi-verra-reso-in-sovrappiu,1
2016-12-13-lo-scatto-del-gattopardo,3
2016-12-14-aggiornamento-definitivo,4
2016-12-16-toccami-stupido,9
2016-12-17-macchine-e-congetture,10
2016-12-19-racconti-di-natale,3
2016-12-25-venuto-il-tempo,6
2016-12-27-non-basta-mai,4
2016-12-28-assoli-di-batteria,6
2016-12-31-il-verbo-si-e-fatto,8
2017-01-03-la-settimana-di-handbrake,7
2017-01-04-mappe-scattanti,9
2017-01-05-preoccupazioni-e-alternative,5
2017-01-06-epifanie-e-confronti,7
2017-01-07-aspettando-una-retro-illuminazione,6
2017-01-10-tempo-al-tempo,6
2017-01-11-la-gente-do-polso-pesa,3
2017-01-15-gente-che-lavora,15
2017-01-16-guru-per-un-giorno,3
2017-01-17-ti-cambiano-la-vita,14
2017-01-18-scherzi-da-rete,1
2017-01-19-scoperte-che-toccano,1
2017-01-20-i-re-mogi,4
2017-01-21-radunanza,1
2017-01-22-le-note-o-la-musica,4
2017-01-24-si-fa-ma-non-si-dice,4
2017-01-25-la-figura-del-mecenate,1
2017-01-28-sostegno-alla-liberta,3
2017-01-29-consigli-di-seguito,2
2017-01-30-perdite-e-profitti,8
2017-01-31-accavallavacca,2
2017-02-01-rara-avis-in-museo,1
2017-02-02-molta-rete-poche-soluzioni,14
2017-02-03-curve-e-controcurve,3
2017-02-04-domanda-e-pretese,6
2017-02-06-chi-non-lo-ha-visto,4
2017-02-07-la-pulce-bisestile,5
2017-02-09-professione-regia,6
2017-02-10-non-ce-ne-per-tutti,2
2017-02-11-semplice-e-complesso,3
2017-02-12-sta-nei-dettagli,2
2017-02-13-o-paghi-o-ti-aggiorno,38
2017-02-14-invisi-ai-naviganti,5
2017-02-15-neanche-si-avvicinano,13
2017-02-16-utile-e-piu-utile,78
2017-02-17-gli-asparagi-e-l-immortalita-dei-supporti,10
2017-02-18-gli-asparagi-e-l-immortalita-dei-formati,11
2017-02-19-gli-asparagi-e-l-immortalita-dei-dati,5
2017-02-20-gli-asparagi-e-l-immortalita-del-cloud,4
2017-02-21-vorrei-ma-non-so,1
2017-02-22-l-assedio-di-monaco,6
2017-02-24-nessuna-nuova-buone-nuove,2
2017-02-27-per-estensione,1
2017-03-01-sereno-variabile-con-ritardi,8
2017-03-03-c-e-sempre-un-motivo,5
2017-03-04-note-di-configurazione,7
2017-03-05-chi-automatizza-trova,4
2017-03-06-il-bene-del-fare,19
2017-03-08-dilettanti-al-lavoro,5
2017-03-09-opinioni-conservatrici,5
2017-03-10-conserva-di-mele,4
2017-03-11-in-privato,2
2017-03-12-tremila-illusioni,6
2017-03-13-la-pubblicita-e-l-anima,14
2017-03-14-ricerca-ad-ampio-respiro,6
2017-03-15-design-di-quello-buono,3
2017-03-16-design-di-quello-non-buono,7
2017-03-18-ok-il-prezzo-e-interessante,1
2017-03-22-sistemi-di-imprecisione,1
2017-03-23-uno-su-cinque-ce-la-fa,7
2017-03-24-il-pasto-virtuale,9
2017-03-28-il-tappeto-sotto-i-piedi,10
2017-03-29-il-terrore-corre-senza-fili,14
2017-03-30-adesso-si-adesso-no,8
2017-04-02-quando-il-gioco-si-fa-piccolo,6
2017-04-03-aggiornamenti-interessanti,6
2017-04-04-corsi-ricorsi-e-convenzioni,2
2017-04-05-mini-ottimismi,7
2017-04-07-mac-pro-e-iphone-4,11
2017-04-08-come-fa-pixelmator,7
2017-04-10-voglie-ortogonali,5
2017-04-12-pari-e-patta,2
2017-04-13-conto-su-ipad,5
2017-04-15-paghi-due-prendi-zero,14
2017-04-18-segni-del-tempo,7
2017-04-19-musica-foto-e-fischi,12
2017-04-20-servizio-di-sicurezza,26
2017-04-21-sfida-al-senso-comune,2
2017-04-22-il-fine-dell-editoria,5
2017-04-23-inefficienze-seriali,6
2017-04-24-chi-si-contenta,13
2017-04-29-pensieri-superficiali,16
2017-04-30-male-non-fare,12
2017-05-01-la-festa-del-backup,2
2017-05-02-pre-verita,11
2017-05-03-doppia-sveglia,5
2017-05-04-il-saltacomando,7
2017-05-10-questione-di-metodo-iii,1
2017-05-11-a-nashville-si-va-in-paradiso,5
2017-05-15-una-giornata-due-estremi,1
2017-05-16-gia-sentito,7
2017-05-17-l-ultimo-prodotto,2
2017-05-18-la-prova-dell-uno,3
2017-05-21-voglio-non-posso-comando-d,4
2017-05-22-orecchie-per-intendere,3
2017-05-23-tutto-scorre,1
2017-05-24-fiducia-e-sicurezza,31
2017-05-26-batti-e-corri,6
2017-05-27-quasi-una-touch-bar,1
2017-05-29-intelligenza-colossale,2
2017-05-30-mappe-un-aggiornamento-sugli-aggiornamenti,1
2017-05-31-si-e-fatta-notte,1
2017-06-01-monaci-digitali,7
2017-06-04-velocita-sessantaquattro,4
2017-06-06-piu-computer-per-tutti,16
2017-06-07-a-margine,7
2017-06-10-nostalgia-dei-sedici,7
2017-06-13-recensioni-a-catena,13
2017-06-14-l-unica-cosa-e-sorridere,3
2017-06-15-un-collegamento-tanto-atteso,4
2017-06-16-piu-in-alto,1
2017-06-17-si-vede-la-killer,2
2017-06-19-padroni-del-silicio,11
2017-06-22-una-storia-di-design-interfacce-e-esperienza-di-utilizzo,2
2017-06-23-terminale-e-gregoriano,2
2017-06-24-standard-di-niente,17
2017-06-25-il-razzismo-supremo,7
2017-06-27-se-questo-e-un-gioco,5
2017-06-28-darwinismi,10
2017-07-02-il-principio-di-peter-e-paul,7
2017-07-03-locusta-vorace,1
2017-07-04-passato-e-presenti,3
2017-07-05-app-per-dimagrire,6
2017-07-06-automazione-televisione-programmazione,3
2017-07-07-quella-di-una-volta,5
2017-07-08-al-prezzo-di-un-computer,1
2017-07-11-disintossicazione-infantile,3
2017-07-12-chiavette-e-modernariato,5
2017-07-13-che-mi-sono-perso,1
2017-07-14-un-addio-di-lusso,2
2017-07-15-milioni-di-milioni,1
2017-07-17-la-catena-del-lavoro,7
2017-07-18-mai-piu-con,3
2017-07-20-ma-perche-perche-no,1
2017-07-22-il-codice-il-codex-il-coding,3
2017-07-23-questione-chiusa-per-forza,6
2017-07-24-foto-a-raffica,1
2017-07-28-una-ammissione-una-bugia,4
2017-07-29-due-passi-avanti-e-uno-indietro,1
2017-07-30-finire-sui-giornali,3
2017-07-31-se-solo-potessero-parlare,1
2017-08-02-tutto-da-vedere,1
2017-08-03-il-dono-delle-lingue,6
2017-08-05-superiorita-ingrandita,1
2017-08-09-editor-e-automazione,1
2017-08-10-non-usarmi-sono-una-app,3
2017-08-11-contanti-saluti,1
2017-08-12-aggiornamenti-d-estate,1
2017-08-13-lavori-di-gruppo,5
2017-08-14-inventarsi-lo-hardware,1
2017-08-15-un-giorno-per-giocare,2
2017-08-17-in-viaggio-com-apple-pay,3
2017-08-18-orgoglio-di-papa,5
2017-08-19-fin-da-piccoli,5
2017-08-20-ma-non-si-vede,2
2017-08-21-notti-interminabili,1
2017-08-22-intelligenza-umanistica,1
2017-08-24-ok-il-prezzo-e-sbagliato,10
2017-08-25-un-mondo-parallelo,3
2017-08-26-notti-infinite,1
2017-08-27-i-soliti-non-professionisti,3
2017-08-28-nello-space-nessuno-puo-sentirti-navigare,4
2017-08-29-servire-proteggere-riciclare,7
2017-08-30-tasto-contro-tasto,2
2017-08-31-la-collezione-dei-campioni,4
2017-09-03-ricorsione-a-new-york,1
2017-09-04-portali-notizie-considerazioni,6
2017-09-05-il-generale-contatta,1
2017-09-06-primitive-intelligenze,2
2017-09-08-furto-a-orologeria,1
2017-09-11-parliamo-di-siri,2
2017-09-14-spremuta-di-keynote,4
2017-09-16-ne-wireless-ne-dieci,11
2017-09-17-tutto-e-niente,2
2017-09-18-pubblicare-meraviglie,2
2017-09-19-la-prova-privacy,2
2017-09-20-l-invenzione-del-breakthrough,3
2017-09-21-il-segreto-di-iphone-x,4
2017-09-22-dall-algoritmo-al-ritmo,2
2017-09-24-fatevi-un-viaggio,3
2017-09-27-la-felicita-nella-semplicita,11
2017-09-28-comincia-per-effe,7
2017-09-29-finisce-per-t,10
2017-09-30-il-prezzo-un-affarone,2
2017-10-01-di-un-altro-tempo,19
2017-10-05-pausa,5
2017-10-06-controllo-assoluto,2
2017-10-07-obsolescenza-sprogrammata,9
2017-10-08-musica-maestri,3
2017-10-09-tecnologia-nel-quartiere,1
2017-10-10-cibo-per-simbionti,2
2017-10-12-tempo-di-backup,4
2017-10-14-fame-di-musica,1
2017-10-16-anelli-mancanti,8
2017-10-17-una-redazione-e-quattro-mac,2
2017-10-18-l-accerchiamento,1
2017-10-19-android-invecchia-bene,3
2017-10-21-la-vertigine-dell-abisso,2
2017-10-22-un-tocco-un-voto,17
2017-10-23-il-delta-delle-decisioni,2
2017-10-24-felice-di-trascriverla,4
2017-10-25-donne-di-polso,1
2017-10-28-la-gallina,1
2017-11-01-dilettanti-che-sbancano,4
2017-11-02-la-sentenza-in-una-riga,4
2017-11-03-profondita-zero,7
2017-11-05-una-buona-causa,1
2017-11-06-il-prezzo-della-fama,2
2017-11-07-conflitto-di-interessi,3
2017-11-08-obiettivo-guatemala,4
2017-11-10-computer-di-servizio,1
2017-11-11-aggettivo-interpretativo,2
2017-11-12-il-senso-della-presenza,5
2017-11-14-la-compilation-decisiva,4
2017-11-15-grandangolo-su-grand-tour,1
2017-11-16-la-paura-fa-x,3
2017-11-17-lo-stato-del-laptop,1
2017-11-18-quarantasette-volte-meno,4
2017-11-19-idee-stantie,3
2017-11-21-stabilita-professionale,14
2017-11-23-c-e-modo-e-modo,2
2017-11-24-il-sorpasso,1
2017-11-25-a-scuola-di-risparmio,3
2017-11-26-l-utile-utility,4
2017-11-27-c-era-una-volta-il-jailbreak,5
2017-11-28-il-cavo-estinto,18
2017-12-02-un-grande-passo-per-la-musica,5
2017-12-03-sul-filo-del-verderame,8
2017-12-04-chiacchiere-e-terminale,6
2017-12-05-una-conclusione-possibile,1
2017-12-06-uno-su-tre,13
2017-12-07-una-foto-della-realta,5
2017-12-09-conteggi-magici,2
2017-12-11-siamo-al-completamento,4
2017-12-12-mangiare-il-panettone,4
2017-12-19-presenza-di-spicco,3
2017-12-22-un-manifesto,4
2017-12-23-a-cuore-sospettoso,1
2017-12-27-alla-venticinquesima,2
2017-12-28-la-prima-risposta-e-quella-che-conta,1
2017-12-30-logica-scarica,8
2018-01-01-oggi-riparto,20
2018-01-02-browser-a-meta,2
2018-01-03-ancora-carta,2
2018-01-05-li-disegnano-cosi,5
2018-01-07-l-eta-della-ribellione,6
2018-01-08-asino-chi-non-legge,5
2018-01-09-gia-al-lavoro,1
2018-01-09-gia-al-lavoro,6
2018-01-11-in-punta-di-safari,6
2018-01-13-virus-e-probiviri,6
2018-01-14-liberi-comunque,3
2018-01-15-il-tempo-delle-magie,5
2018-01-18-panorami-suggestivi,1
2018-01-19-qualunque-faccia,10
2018-01-20-giochi-al-tempo-della-carta,5
2018-01-21-al-video-quel-che-e-del-video,1
2018-01-22-e-ora-qualcosa-di-ragionevolmente-diverso,3
2018-01-24-ingerenze-straniere,24
2018-01-25-pensare-agli-anziani,3
2018-01-26-un-altro-manifesto,3
2018-01-27-come-in-un-film,3
2018-01-28-l-influenza-asiatica,3
2018-01-31-mai-da-sole,6
2018-02-01-uno-sguardo-a-freddo,1
2018-02-03-perseverare,1
2018-02-05-nascere-vecchi,1
2018-02-08-romanzetto-criminale,1
2018-02-10-quante-letture-nel-2017,3
2018-02-13-ultima-chiamata-per-il-buonsenso,13
2018-02-14-qualita-funzioni-e-scadenze,1
2018-02-16-le-applicazioni-di-betteridge,1
2018-02-17-il-suono-della-legge,1
2018-02-18-piuttosto-che-piuttosto,5
2018-02-20-una-boccata-d-air,6
2018-02-22-note-sul-xxi-secolo,2
2018-02-28-eterni-secondi,1
2018-03-01-contraddizione-in-privacy,2
2018-03-02-pesi-e-misure,3
2018-03-03-il-tempo-si-e-fermato,1
2018-03-04-curve-pericolose,1
2018-03-05-amor-vacui,1
2018-03-06-senza-rimpianti,4
2018-03-07-malelinguette,6
2018-03-08-pensare-differente,2
2018-03-10-letture-responsabili,1
2018-03-11-tavoletta-rasa,5
2018-03-12-il-fascino-della-meccanica,2
2018-03-13-risorse-per-asceti,4
2018-03-14-difesa-suicida,2
2018-03-15-un-gioco-di-meno,3
2018-03-16-le-incredibili-coincidenze,10
2018-03-18-come-giocarsi-il-jack,3
2018-03-20-la-classifica-degli-assist,2
2018-03-24-forward-to-school,2
2018-03-26-tesi-e-antitesi,2
2018-03-27-la-logica-dell-alternanza,13
2018-03-30-il-test-decisivo,3
2018-04-01-passaggio-affrettato,5
2018-04-03-volo-a-tre-stadi,2
2018-04-04-ci-siamo-quasi,2
2018-04-05-gente-all-antica,6
2018-04-12-il-test-delle-undici,2
2018-04-14-uno-su-dieci-non-ce-la-fa,8
2018-04-15-altro-che-multimedia,1
2018-04-18-una-croce-sopra,1
2018-04-19-avanti-un-altro,2
2018-04-21-il-gusto-di-cambiare-le-regolari,4
2018-04-22-la-meta-buona,1
2018-04-23-il-tempo-e-sempreverde,8
2018-06-21-un-viaggio-inaspettato,18
2018-06-23-l-anziano-specialista,4
2018-06-24-quei-fluidi-robot,2
2018-06-25-una-che-non-ce-la-fa-proprio,2
2018-06-29-attaccarsi-al-dongle,1
2018-07-02-decisioni-chiave,2
2018-07-04-provaci-ancora-vlad,2
2018-07-05-paranoie-e-facili-costumi,3
2018-07-06-come-mai-prima,1
2018-07-08-il-novanta-fa-paura,2
2018-07-10-l-esperimento-musk,3
2018-07-11-a-letto-con-la-complicazione,1
2018-07-12-la-differenza,3
2018-07-13-grandi-speranze,1
2018-07-15-la-festa-dei-dieci-anni,4
2018-07-20-la-riparabilita-nel-2018,4
2018-07-21-fantasie-da-icloud,1
2018-07-22-i-nuovi-vestiti-dell-imperatore,1
2018-07-24-che-al-mercato-mio-padre-compro,10
2018-07-25-teste-al-caldo,6
2018-07-26-imprese-da-consumatori,3
2018-07-27-il-test-del-degrado,2
2018-07-28-guida-al-mondo-android-in-duecentosessantacinque-parole,1
2018-07-29-viaggiare-leggeri-e-parlarne,5
2018-08-02-la-guerra-strisciante,1
2018-08-06-buone-notizie-dal-terminale,3
2018-08-07-forma-e-sostanza,2
2018-08-09-la-campagna-per-il-dedetox,7
2018-08-11-gia-che-abbiamo-fatto-trentuno,1
2018-08-14-tutto-da-vedere,1
2018-08-16-quando-la-band-passo,3
2018-08-17-rust-never-sleeps,5
2018-08-18-famolo-ricaricabile,7
2018-08-19-piu-compilo-per-tutti,2
2018-08-20-quando-e-troppo,1
2018-08-21-non-si-possono-vedere,3
2018-08-22-senza-ritorno,11
2018-08-23-le-tavole-delle-leggi,2
2018-08-26-selene-e-un-apparato-lunatico,8
2018-08-28-a-roma-da-freelance,6
2018-08-29-il-router-e-morto-viva-il-firmware,4
2018-08-31-scontro-di-civilta,3
2018-09-01-il-ritorno-del-re,3
2018-09-02-un-dubbio-si-fa-strada,4
2018-09-03-carpe-ios,1
2018-09-16-costi-quel-che-costi,14
2018-09-17-cose-che-nessun-altro,3
2018-09-18-gli-assuefatti,2
2018-09-19-sensore-a-sensazione,3
2018-09-20-comandi,1
2018-09-21-pero-costano-poco,5
2018-09-22-sudditanza-psicologica,1
2018-09-24-per-me-apple-lo-fa-apposta,4
2018-10-02-nuovo-hardware-nuovo-software,1
2018-10-05-il-conto-degli-elettrodi,4
2018-11-22-grandi-aspirazioni,10
2018-11-23-lo-stato-ti-uccide-con-la-trasformazione-digitale,4
2018-11-25-non-recensioni-mac-mini-2018,1
2018-11-26-non-recensioni-macos-mojave,6
2018-11-27-non-recensioni-ipad-pro-12-9,2
2018-11-28-non-recensioni-ipad-pro-12-9-2,4
2018-11-29-non-recensioni-ipad-pro-12-9-3-gli-avanzi,10
2018-11-30-motion-perpetuo,3
2018-12-01-caro-babbo-natale,10
2018-12-02-il-fine-giustifica-i-mezzi,2
2018-12-03-le-nostre-tradizioni,7
2018-12-05-doppio-is-peggio-che-quadruplo,1
2018-12-06-pensieri-unici,6
2018-12-07-nuove-sensazioni,1
2018-12-08-concorrenza-autoimmune,3
2018-12-09-ipad-dietro-le-quinte,2
2018-12-11-cose-che-toccano-il-cuore,7
2018-12-26-babbo-digitale,3
2018-12-27-divergenze-parallele,1
2018-12-28-sessanta-e-lode,1
2018-12-29-secondo-quantita,1
2018-12-31-lo-sbilancio-di-un-anno,5
2019-01-01-concreto-e-immateriale,2
2019-01-02-il-prezzo-della-nostalgia,2
2019-01-04-prepararsi-al-dopo,5
2019-01-05-anno-nuovo-deficienti-vecchi,8
2019-01-06-la-befana-vien-di-note,1
2019-01-07-un-dopo-dropbox,8
2019-01-09-il-costo-della-distribuzione,2
2019-01-10-spreco-e-fastidio,11
2019-01-11-prima-dovere-poi-piacere,12
2019-01-12-stomaci-di-stato,6
2019-01-13-la-scoperta-della-semplicita,1
2019-01-15-coincidenze-alternative,4
2019-01-18-fifty-fifty,2
2019-01-19-povere-famiglie,5
2019-01-21-iperpropulsione-e-testo,2
2019-01-22-naturale-grandezza,2
2019-01-23-causa-traffico,1
2019-01-24-dal-floppy-a-dd,11
2019-01-25-sempre-anniversario,1
2019-01-27-smetto-quando-voglio,6
2019-01-30-fai-la-cosa-giusta,1
2019-01-31-l-enigma-dei-media,9
2019-02-01-l-arte-di-ottenere-ragione,5
2019-02-02-ritorno-dal-passato,7
2019-02-04-un-motivo-ci-sara,3
2019-02-06-un-fatt-di-attezione,6
2019-02-07-digitalia,3
2019-02-09-non-si-puo-vedere,1
2019-02-10-le-piace-vincere-facile,2
2019-02-12-la-rivoluzione-invertita,13
2019-02-13-non-disturbare,3
2019-02-16-chiacchiere-e-coltan,3
2019-02-17-tocchiamo-questo-tasto,2
2019-02-18-tutto-torna,5
2019-02-20-piegati-ma-non-spezzati,4
2019-02-22-un-cambiamento-di-spessore,1
2019-02-26-ventisette-anni-e-va-a-giocare-con-la-sabbia,1
2019-03-02-in-doppia-cifra,5
2019-03-04-riparare-il-linguaggio,3
2019-03-05-in-viaggio-con-wi-fi,2
2019-03-06-tutto-e-dovunque,4
2019-03-07-in-viaggio-con-wi-fi,2
2019-03-08-triplo-multitasking,1
2019-03-09-in-viaggio-con-wi-fi-la-grande-truffa,2
2019-03-26-chi-si-distingue-e-bravo,4
2019-03-28-insegnagli-a-pescare,2
2019-04-01-serpenti-di-aprile,3
2019-04-07-been-there-said-that,2
2019-04-08-la-tensione-ai-dettagli,2
2019-04-09-chiedimi-perche-amo-la-tecnologia,2
2019-04-11-tendenza-darwin,3
2019-04-13-biscotto-della-fortuna,4
2019-04-21-di-passaggio,7
2019-04-26-una-macro-e-per-sempre,3
2019-04-27-si-spezza-e-non-si-spiega,1
2019-04-29-il-tunnel-della-sfida,2
2019-05-02-corpi-elettorali,4
2019-05-03-piccole-innovazioni,2
2019-05-04-umani-dal-passato,1
2019-05-05-sotto-l-impermeabile,4
2019-05-08-il-fascino-della-spirale,2
2019-05-11-la-giusta-angolazione,1
2019-05-13-sviluppi-editoriali,4
2019-05-17-strip-different,2
2019-05-19-affari-di-quora,1
2019-05-21-libri-storie-e-storie-di-libri,3
2019-05-22-venti-anni-e-non-sentirli,5
2019-05-23-buone-vecchie-abitudini,1
2019-05-24-la-manovella-dell-innovazione,2
2019-05-27-bye-bye-intel,12
2019-05-29-come-e-difficile-essere-un-mac,3
2019-05-30-ora-del-rinfresco,1
2019-06-02-fuori-tutto,1
2019-06-04-diversificare-per-prosperare,5
2019-06-05-uomini-e-topi,8
2019-06-06-sogni-e-realta,2
2019-06-07-dischi-rotti,3
2019-06-10-silenzio-ti-ascoltano,6
2019-06-12-altro-che-fixit,6
2019-06-14-la-reinvenzione-delle-ruote,1
2019-06-15-sono-traguardi,3
2019-06-16-smontaggio-cruscotto,1
2019-06-17-pro-testatari,1
2019-06-18-spaccaquindicimila,5
2019-06-19-tradizionale-e-unico,1
2019-06-20-le-certezze-del-caso,1
2019-06-21-la-tipografia-ti-salva,1
2019-06-22-e-ora-tutti-insieme,5
2019-07-15-non-e-successo-niente,4
2019-07-16-dischi-di-lana-caprina,2
2019-07-17-vivere-a-colori,1
2019-07-18-ricerche-riservate,1
2019-07-19-cose-che-stridono,1
2019-07-20-vicini-e-lontani,2
2019-07-21-il-lato-illuminato,3
2019-07-22-topi-per-trappola,5
2019-07-23-a-scuola-di-privacy,1
2019-07-25-gente-senza-cuore,1
2019-07-26-il-mio-primo-comando-rapido,2
2019-07-27-azioni-e-radiazioni,2
2019-07-28-il-blocco-ex-sovietico,4
2019-08-08-un-nome-nessuna-garanzia-ma-una-intuizione,1
2019-08-09-la-pazienza-e-i-dati,6
2019-08-10-come-canne-da-giardino,1
2019-08-15-farsi-del-bene,3
2019-08-17-unicuique-suum,3
2019-08-19-il-video-che-non-ti-aspetti,2
2019-08-22-la-tavoletta-di-babele,3
2019-08-23-la-carica-dei-malpensanti,8
2019-08-24-pubblico-e-privato,1
2019-08-25-dare-lustro-al-buonsenso,4
2019-08-26-mettersi-in-regolare,2
2019-08-30-tutti-a-scuola,13
2019-09-05-computer-da-sogno,2
2019-09-06-stati-d-ansia,1
2019-09-10-signori-della-corte,2
2019-09-11-come-e-umana-lei,13
2019-09-13-il-non-annuncio-del-non-cloud,2
2019-09-16-che-viene-da-piangere,1
2019-09-17-giornalismo-di-quartiere,1
2019-09-29-la-caduta-di-re-riccardo,2
2019-10-01-a-la-cartina,4
2019-10-02-il-grigio-che-vince,2
2019-10-03-smanettare-nel-xxi-secolo,3
2019-10-05-,8
2019-10-08-rubabandiera,3
2019-10-11-la-crociera-costa,8
2019-10-23-piu-swift-per-tutti,3
2019-10-28-il-fare-della-tranquillita,4
2019-11-04-parole-in-liberta,8
2019-11-05-quando-e-troppo,3
2019-11-08-musica-per-la-nostra-era,1
2019-11-11-insegnagli-a-pescare,4
2019-11-12-spendaccioni-squattrinati,1
2019-11-13-pronipoti-e-antenati,3
2019-11-14-la-vera-attualita,4
2019-11-17-guardia-di-porta,3
2019-11-21-un-nuovo-modo-di-vedere-le-cose,8
2019-11-24-un-programma-bacato,14
2019-11-28-e-solo-l-inizio,3
2019-11-29-tre-cose-da-imparare,10
2019-12-01-avventure-nell-avvento,3
2019-12-05-voglio-macos-golden,1
2019-12-06-i-codici-della-pittura,8
2019-12-07-scrivere-come-se-fosse-il-1979,1
2019-12-08-schermo-piccolo-gente-mormora,3
2019-12-10-dove-eravamo,3
2019-12-12-l'ottusa-muraglia,5
2019-12-13-chi-non-vuol-sentire,5
2019-12-14-un-futuro-non-compresso,2
2019-12-15-loro-non-sanno-chi-sono-io,1
2019-12-25-presto-feste,1
2019-12-27-l'ospite-inatteso,5
2019-12-31-toccarlo-piano,4
2020-01-01-classifiche-atipiche,6
2020-01-02-eterne-domande-bollenti,9
2020-01-07-ogni-maledetta-epifania,4
2020-01-08-astronave-scuola,1
2020-01-09-cioccolata-e-nonne,1
2020-01-11-l-enigma-del-browser,18
2020-01-12-ne-resteranno-solo-tre,2
2020-01-14-viva-la-differenza,7
2020-01-15-mai-contenti,4
2020-01-18-prospettive-decennali,1
2020-01-19-problemi-che-scompaiono,4
2020-01-20-quante-finestre-vuoi,7
2020-01-21-sparire-per-la-privacy,7
2020-01-22-e-solo-un-breve-invito,8
2020-01-23-una-lezione-di-evoluzione-tecnologica,1
2020-01-24-un-font-mille-app,3
2020-01-25-per-partito-presa,1
2020-01-27-installare-e-instillare,6
2020-01-28-pallide-copie,7
2020-01-30-toni-sopra-le-righe,7
2020-02-02-legati-ambiguamente,2
2020-02-03-pubblico-e-privato,3
2020-02-04-imprese-sempre-piu-impossibili,1
2020-02-05-realta-e-fiction,1
2020-02-07-raddoppia-e-lascia,1
2020-02-08-innovazione-e,1
2020-02-09-salute-e-ricchezze,2
2020-02-10-il-guasto-per-la-provocazione,1
2020-02-11-roba-di-matt,3
2020-02-13-pensa-in-grande-agisci-in-piccolo,4
2020-02-14-ricette-semplici,11
2020-02-16-pensieri-non-comuni,1
2020-02-17-due-passi-avanti,1
2020-02-19-non-tutte-le-frittate-escono-col-buco,13
2020-02-20-intelligenza-e-interfaccia,8
2020-02-21-se-questa-e-una-rapina,8
2020-02-22-chiuso-per-imenei,7
2020-02-23-deontologia-portami-via,5
2020-02-26-un-attimo-di-progresso,2
2020-02-27-rischio-compagnia,16
2020-02-28-piu-grand-di-drang,4
2020-02-29-il-privilegio-di-poter-dire-no,1
2020-03-03-solo-i-diversi-sopravvivono,2
2020-03-08-le-porte-si-chiudono,11
2020-03-10-l'odore-della-cattedra,5
2020-03-12-c-e-contagio-e-contagio,6
2020-03-13-scopo-condivisione,6
2020-03-15-ricchi-grandi-ricchi-e-statistiche,4
2020-03-17-il-nodo-e-tratto,1
2020-03-18-ne-restera-almeno-uno,9
2020-03-19-come-dicevano,5
2020-03-22-la-banda-bassotti,3
2020-03-23-eppur-non-si-muove,1
2020-03-24-l-inghippo-della-profondita,1
2020-03-25-secondo-stadio,1
2020-03-26-su-la-testa,1
2020-03-28-vite-e-dati,2
2020-03-30-a-voi-studio,2
2020-04-01-voto-il-cubo,5
2020-04-02-cortesie-per-gli-hosting,3
2020-04-04-sulla-distanza,6
2020-04-05-l-insofferenza,5
2020-04-06-internet-come-dio-comanda,1
2020-04-07-e-le-locuste,4
2020-04-08-sentenzia-da-casa,8
2020-04-09-del-doman-la-biometria,1
2020-04-10-gli-assenti-hanno-torto,7
2020-04-12-una-rete-vitale,3
2020-04-13-la-valle-della-tranquillita,3
2020-04-14-un-eterno-aliante-geniale,6
2020-04-15-attenzioni-non-richieste,1
2020-04-17-cento-di-questi-trenta-anni,1
2020-04-18-curve-di-livello,1
2020-04-20-ciao-pepp-pt,12
2020-04-21-essere-o-non-essere,4
2020-04-22-sfide-all-ok-coral,2
2020-04-23-it-s-a-kind-of-mac-magic,3
2020-04-24-questa-non-me-la-perdo,4
2020-04-25-si-puo-fare,1
2020-04-26-destra-sinistra-basta,7
2020-04-28-la-farina-del-diavolo,3
2020-04-29-sincronizzazione-e-dolori,25
2020-04-30-che-brutta-cornice,3
2020-05-01-restiamo-connessi,10
2020-05-02-sottintesi,5
2020-05-03-quando-il-gioco,3
2020-05-04-tutto-un-altro-discorso,3
2020-05-07-ohm-sweet-ohm,6
2020-05-08-undici-non-e-abbastanza,5
2020-05-11-era-un-altra-era,1
2020-05-12-smussare-gli-angoli,1
2020-05-14-un-italiano-un-francese-e-un-inglese,9
2020-05-15-in-stato-di-svendita,3
2020-05-17-adozione-ad-interim,5
2020-05-19-impicci-e-impacci,6
2020-05-23-ultime-spiagge,7
2020-05-24-quattro-innovazioni,3
2020-05-26-la-scoperta-di-linus,7
2020-05-30-il-ruolo-della-telematica,1
2020-06-02-la-peggiore-applicazione-da-installare,6
2020-06-03-fare-i-compiti-con-ipad-e-apple-pencil,13
2020-06-04-l-avvento-dell-approssimazione,3
2020-06-05-note-in-liberta,4
2020-06-06-a-cuore-aperto,2
2020-06-07-lavorare-nell-aerospaziale,2
2020-06-08-lavorare-al-comune,6
2020-06-09-il-passato-non-ripete,8
2020-06-10-il-punto-sul-puntatore,5
2020-06-11-una-lezione-da-condividere,6
2020-06-12-pensieri-da-spiaggia,4
2020-06-13-il-certo-per-l-incerto,1
2020-06-14-la-ragione-e-i-dati,3
2020-06-15-rispondere-con-gusto,2
2020-06-16-barra-dritta,8
2020-06-19-il-test-dell-estate,3
2020-06-26-cambiocultura,1
2020-06-27-chiuso-per-brutto,1
2020-06-28-attese-pazienti,1
2020-07-01-europa-2-0,1
2020-07-02-europa-2-0-1,2
2020-07-04-il-lavoro-di-dire-no,2
2020-07-05-oggi-politica,3
2020-07-06-la-fabbrica-dei-sogni,2
2020-07-08-rectilineo-collo,5
2020-07-11-adesso-acceso-adesso-spento,3
2020-07-12-la-terza-via,2
2020-07-14-standard-di-disfatto,2
2020-07-16-economia-domestica,5
2020-07-17-incollato-a-un-menu,2
2020-07-18-insegnamento-a-distanza,1
2020-07-21-a-petto-con-il-nemico,22
2020-07-23-automatismi-giornalieri,2
2020-07-24-lo-voglio-comprare,4
2020-07-29-la-minaccia-da-un-mondo-alieno,4
2020-07-30-peccati-originali,2
2020-07-31-guerra-di-indipendenza,17
2020-08-04-indipendenze-di-amazon,1
2020-08-05-posti-limitati,2
2020-08-07-leggere-o-non-leggere-questo-e-il-problema,3
2020-08-08-avanzassero,1
2020-08-09-scelte-del-caso,2
2020-08-10-manager-e-leader,2
2020-08-12-exit-strategy,3
2020-08-13-desertica-a-distanza,2
2020-08-14-un-paese-due-sistemi,2
2020-08-15-trenta-e-non-piu-trenta,4
2020-08-16-l-arte-dell-errore,3
2020-08-17-per-qualcuno-e-sempre-festa,3
2020-08-19-ne-contro-re,3
2020-08-20-proprio-come-una-volta,5
2020-08-21-la-surrealta-supera-la-fantasia,10
2020-08-22-il-braciere-e-il-digitale,3
2020-08-23-liberta-di-scelta,7
2020-08-24-per-il-gusto-di-chattare,4
2020-08-25-ipotesi-di-complotto,2
2020-08-26-due-promesse-sono-due-promesse,1
2020-08-28-scienza-e-politica,2
2020-08-29-lo-snobismo-dello-scripter,5
2020-08-30-tutto-big-sur-minuto-per-minuto,6
2020-08-31-il-virus-del-sapere,7
2020-09-02-dissonanze-cognitive,3
2020-09-05-affamati-di-energia,7
2020-09-09-the-microsoft-way,11
2020-09-11-pubblicita-cattiva,4
2020-09-12-recensire-al-futuro,4
2020-09-13-ammissione-impossibile,1
2020-09-14-cinque-di-meno,6
2020-09-15-una-stella-e-quattro-zeri,2
2020-09-16-nessuna-nvidia,5
2020-09-17-valore-di-che,3
2020-09-18-senza-risposta,22
2020-09-19-l-offerta-di-un-servizio,3
2020-09-20-dritti-e-doveri,6
2020-09-23-tracce-da-seguire,2
2020-09-24-scuole-da-provare,4
2020-09-25-pace-e-programmini,2
2020-09-26-un-problema-da-inquadrare,6
2020-09-27-segreti-ma-non-tanto,4
2020-09-29-benessere-web,3
2020-09-30-il-punto-sulla-linea,4
2020-10-01-un-caso-da-manuale,20
2020-10-03-viva-la-differenza,11
2020-10-04-senza-tante-storie,3
2020-10-05-cinque-ottobre,2
2020-10-06-l-anello-mancante,9
2020-10-08-grand-hotel-excel,10
2020-10-10-l-uovo-o-la-gallina,2
2020-10-11-la-paura-e-lenta,8
2020-10-12-la-paura-e-vecchia,2
2020-10-13-core-ingrati,4
2020-10-14-strade-nascoste,8
2020-10-15-tempo-di-migrare,8
2020-10-16-come-prima-piu-di-prima,3
2020-10-17-un-nuovo-format,8
2020-10-19-a-tutela-del-consumatore,3
2020-10-21-scelte-decisive,11
2020-10-22-un-libro-in-un-articolo,1
2020-10-24-chi-sbaglia-fa-pagare,2
2020-10-25-servi-del-potere,5
2020-10-26-scuole-di-pensiero,4
2020-10-27-abbiamo-abolito-la-poverta,4
2020-10-29-l-abito-fa-l-abitudine,3
2020-10-31-e-arrivata-la-quattordicesima,4
2020-11-01-e-ora-qualcosa-di-completamente-diverso,3
2020-11-02-strumenti-umani,2
2020-11-03-frecce-e-setacci,10
2020-11-04-scelte-di-elezione,2
2020-11-05-pensiero-computazionale,4
2020-11-08-non-cosi-rapidi,2
2020-11-10-chi-sfrutta-chi,3
2020-11-11-un-movimento-sexy,2
2020-11-12-cosi-andra-il-mondo,5
2020-11-13-strascichi-di-halloween,2
2020-11-15-la-lunga-marcia,8
2020-11-16-attaccati-a-ocsp,4
2020-11-17-nativi-e-selvaggi,10
2020-11-18-migliorie-che-attendono,8
2020-11-19-come-volevasi-non-dimostrare,1
2020-11-20-la-verita-sta-nei-numeri,2
2020-11-21-safari-nella-pigrizia,3
2020-11-22-il-test-per-solitari,7
2020-11-23-tutto-s-aggiusta-commedia-circolare-in-tre-atti,2
2020-11-24-artificiale-sarebbe-un-complimento,3
2020-11-25-mac-different,1
2020-11-26-recensioni-a-vapore,2
2020-11-27-buon-non-compleanno-gimp,18
2020-11-29-il-fattore-umano,7
2020-11-30-completo-o-coerente,4
2020-12-02-the-postpc-dream,2
2020-12-03-dedicato-ai-folli,2
2020-12-04-il-signore-degli-script,1
2020-12-05-resistenza-agli-schizzi,7
2020-12-06-il-dado-e-trattino,14
2020-12-07-ricomincio-da-boot,2
2020-12-10-la-postpotenza-delle-lobby,2
2020-12-11-tandard-e-sformati,6
2020-12-12-quando-il-gioco-si-fa-lungo,4
2020-12-13-teste-barrate,6
2020-12-14-quanti-pixel-sono-passati,2
2020-12-17-il-futuro-del-testo,1
2020-12-18-avere-o-essere,3
2020-12-19-miliardari-e-piantagrane,2
2020-12-20-famolo-disruptive,1
2020-12-21-orizzonti-perduti,4
2020-12-22-natale-con-gli-esperti,3
2020-12-24-tele-rai-a-cercare,7
2020-12-25-ritrovarsi-a-tavola,2
2020-12-28-soldi-contro-anime,6
2020-12-29-il-peggiore-dei-lockdown,8
2020-12-30-altre-lezioni-americane,8
2020-12-31-buon-2020,4
2021-01-01-memento-complexitatis,3
2021-01-03-contabilita-spicciola,6
2021-01-04-un-intelligenza-che-mancava,6
2021-01-05-un-anello-per-guardarli,2
2021-01-06-vacanze-e-verifiche,5
2021-01-09-natura-non-facit-saltus,3
2021-01-10-onda-di-marea,4
2021-01-11-vivere-all-aggiornata,5
2021-01-25-e-hanno-troppo-rispetto-per-lo-status-quo,3
2021-01-26-de-gustibus,1
2021-01-29-sembra-facile,1
2021-02-02-gente-di-rispetto,1
2021-02-05-l-antenato-illustre,2
2021-02-07-il-diavolo-sta-nella-reticenza,3
2021-02-08-commentario-di-meta-incontro,8
2021-02-16-la-fila-dei-postulanti,1
2021-03-09-il-pagamento-degli-arretrati,2
2021-03-12-detenuti-e-tiranni,1
2021-03-19-la-stampante-che-non-c-e,1
2021-03-22-il-vaccino-impossibile,6
2021-04-05-supremo-enigma,2
2021-04-07-renitente-all-apprendimento,4
2021-04-20-come-scegliere-il-monitor-giusto,7
2021-04-21-gli-estremi-non-si-toccano,2
2021-04-24-non-succede-spesso,3
2021-05-01-da-telefono-a-webcam,1
2021-05-04-nella-ripresa,1
2021-05-05-a-domanda-rispondo,2
2021-05-14-non-so-perche,1
2021-05-27-la-farfalla-e-l-ape,2
2021-06-09-metterci-la-faccina,2
2021-06-12-codice-non-parole,1
2021-06-25-la-piattaforma-degli-animali,1
2021-07-01-l-ora-alfa-per-le-beta,3
2021-07-04-l-abitudine-non-fa-il-monaco,3
2021-07-13-la-citta-degli-ipad,1
2021-07-16-imparare-a-insegnare,2
2021-07-26-dall-altra-parte,4
2021-07-29-programmazioni-scolastiche,1
2021-08-10-non-c-e-niente-da-vedere,3
2021-08-11-ipertestare-la-scuola,11
2021-08-13-uno-schermo-per-tutti-tutti-per-una-app,1
2021-08-15-a-proposito-di-schoolware,1
2021-08-21-elogio-della-follia,3
2021-08-24-realta-alterata,1
2021-08-30-il-mac-della-batteria,1
2021-09-02-chiedo-per-un-collega,28
2021-09-15-chi-siamo-dove-andiamo,2
2021-09-18-il-rovescio-alla-riparazione,3
2021-09-18-il-rovescio-alla-riparazione,11
2021-09-19-chiuso-per-stereotipo,39
2021-09-27-senza-rete,1
2021-09-28-guardare-e-non-scattare,2
2021-10-01-la-carica-dei-705,1
2021-10-03-il-filesystem-di-asimov,2
2021-10-04-cuore-di-mela-forever,1
2021-10-10-la-tiobe-di-babele,3
2021-10-20-il-discontinuum-spaziotemporale,1
2021-10-21-il-treno-dei-desideri,2
2021-10-25-vecchi-trucchi,3
2021-10-27-investire-nel-mattoncino,1
2021-10-28-sottostime-e-sovrastime,3
2021-10-31-lo-capiscono-anche-i-sassi,4
2021-11-06-troppo-presto,1
2021-11-08-dalla-aaa-alla-zzz,14
2021-11-15-il-giardino-disincantato,1
2021-11-18-ospide-indesiderato,4
2021-11-21-la-riparabilità-ha-rotto,2
2021-11-30-il-buono-il-brutto-e-il-cattivo,1
2021-12-01-un-regalo-da-conservare,5
2021-12-06-buronet,3
2021-12-12-l-abbonamento-finale,7
2021-12-18-l-emulo-dubbioso,1
2021-12-27-58-minuti-per-caricare,1
2021-12-28-cercasi-breakthrough,3
2021-12-31-anno-nuovo-motore-nuovo,17
2022-01-19-ragionieri-del-gaming,1
2022-01-22-scrivi-come-mangi,9
2022-01-27-una-splendida-giornata,1
2022-01-28-a-volte-ritornano,13
2022-01-29-with-a-little-help,10
2022-02-02-regressione-o-bug,9
2022-02-03-l-accento-sull-eta,4
2022-02-04-la-scorciatoia-per-il-domani,3
2022-02-08-e-tutto-un-prepararsi,5
2022-02-12-ogni-promessa-e-debito-formativo,8
2022-02-13-cose-di-pendenza,2
2022-02-14-una-partita-da-divano,4
2022-02-15-il-derby-in-cifre,5
2022-02-17-vite-ritrovate,12
2022-02-18-alleggerire-la-pressione,4
2022-02-19-lo-voglio-gold,3
2022-02-21-blog-lines-matter,9
2022-02-23-perdere-cavallerescamente,19
2022-02-24-piu-uguali-degli-altri,3
2022-02-25-mele-e-tartarughe,3
2022-02-28-l-anno-che-sta-arrivando,8
2022-03-01-sembra-semplice,2
2022-03-02-la-ragione-sbagliata,3
2022-03-03-rompere-l-assedio,8
2022-03-04-un-assaggio-di-storia,5
2022-03-05-fantasmi-e-non-morti,11
2022-03-06-fuori-dalla-realta,1
2022-03-09-panta-mac,10
2022-03-10-che-palle-l-innovazione,2
2022-03-11-consigli-per-la-manutenzione,12
2022-03-12-la-guerra-di-maurizio,7
2022-03-15-aria-di-mac,4
2022-03-16-sopravvivere-ai-bug,3
2022-03-17-zitto-e-scrivi,3
2022-03-18-un-mago-dell-editoria,1
2022-03-19-one-station-one-action,2
2022-03-21-contesto-e-passione,2
2022-03-22-un-computer-e-non-lo-sa,5
2022-03-23-quelli-che-vogliono,3
2022-03-24-l-evoluzione-silenziosa,9
2022-03-26-la-bomboletta-di-raid,4
2022-03-27-testi-duri,1
2022-03-28-cimiteri-a-confronto,15
2022-03-29-al-banchetto-del-software,9
2022-04-01-mari-e-monti,3
2022-04-03-i-nuovi-mostri,3
2022-04-04-a-brutto-muse,7
2022-04-06-il-software-che-verra,10
2022-04-07-aprile-dolce-comandare,3
2022-04-10-il-dono-della-scrittura-facile,2
2022-04-12-stories-di-tutti-i-giorni,1
2022-04-16-una-cartella-troppo-privata,4
2022-04-17-lavori-in-scorso,2
2022-04-21-panta-server,1
2022-04-22-grande-come-un-terminale,6
2022-04-24-codice-di-comportamento,1
2022-04-30-la-legge-delle-piattaforme-antiche,2
2022-05-01-non-vedo-l-ora,2
2022-05-02-pontes-asinorum,1
2022-05-03-corse-di-recupero,15
2022-05-04-la-seconda-gemma,4
2022-05-06-eva-ne-scienza,2
2022-05-07-partenze-intelligenti,1
2022-05-08-camera-con-piu-vista,3
2022-05-09-e-giovane-ma-crescera,2
2022-05-11-dell-analfabetismo-informatico,4
2022-05-11-profezie-e-innovazione,4
2022-05-12-internet-porta-liberta,3
2022-05-13-una-locazione-alla-volta,2
2022-05-15-cartella-canta,20
2022-05-17-al-parco-per-il-compleanno,2
2022-05-18-punto-di-non-ritorno,4
2022-05-19-la-prima-colonia-the-montecristo-project-recensione-in-tre-parti-parte-zero,2
2022-05-21-se-lo-dice-l-autore,5
2022-05-22-il-regresso-in-tre-storie,1
2022-05-24-il-secondo-linguaggio-piu-antico-del-mondo,3
2022-05-25-mappe-da-perdizione,5
2022-05-26-e-cambiato-il-metronomo,1
2022-05-26-e-cambiato-il-metronomo,2
2022-05-27-esami-di-riparazione,2
2022-05-28-la-prima-colonia-the-montecristo-project-recensione-in-tre-parti-parte-uno,7
2022-05-29-dimenticavo-il-cavo,3
2022-05-30-diue-chiacchiere-stasera,3
2022-05-31-eravamo-tre-amici-alla-touch-bar,2
2022-06-01-trentenni-da-emulare,3
2022-06-02-per-meta-scoperta,3
2022-06-03-circolare-non-c-e-niente-da-vedere,2
2022-06-04-una-sveglia-indiscreta,2
2022-06-05-campo-di-mappe-mappe-di-campo,1
2022-06-07-un-ambiente-per-trovarsi,4
2022-06-09-basta-asciutta,4
2022-06-10-i-rischi-dell-atom,3
2022-06-12-scaldarsi-e-inutile,5
2022-06-13-lei-non-sa-chi-sono-io,5
2022-06-14-finche-ce-n-e,2
2022-06-15-degli-antichi-peccati,2
2022-06-17-la-sicumera-degli-stagisti,7
2022-06-18-l-esercito-delle-mummie,2
2022-06-20-a-che-servono-gli-amici,11
2022-06-21-inintelligibili-contro-il-mondo,5
2022-06-22-uno-su-mille-non-ce-la-fa,6
2022-06-24-il-piano-a,2
2022-06-26-lo-stage-posticipato,4
2022-06-28-la-pazienza-vince-su-tutto,10
2022-06-29-per-la-controreform,7
2022-06-30-schermi-mentali,9
2022-07-01-il-virus-della-sincronia,3
2022-07-08-de-generazione-in-generazione,1
2022-07-08-de-generazione-in-generazione,3
2022-07-09-an-experience-company,2
2022-07-10-un-sabato-italiano,2
2022-07-12-quando-non-c-erano-i-nickname,3
2022-07-14-come-cambia-il-fumetto,4
2022-07-15-l-enigma-aggiuntivo,10
2022-07-16-in-memoria-della-comunicazione,3
2022-07-17-era-vero,5
2022-07-18-la-prima-colonia-the-montecristo-project-recensione-in-tre-parti-parte-due,2
2022-07-19-cose-che-non-posso-dimostrare,3
2022-07-20-un-giorno-tutto-questo-sara-loro,5
2022-07-21-quelli-che-mancano,2
2022-07-22-quanto-vale-una-pagina,6
2022-07-23-ondate-di-calore,4
2022-07-27-l-invenzione-della-filosofia,1
2022-07-28-amici-reali-amici-virtuali,1
2022-07-30-la-notizia-piu-lenta-del-mondo,2
2022-08-03-panta-linus,5
2022-08-04-la-soddisfazione-di-alba,2
2022-08-05-a-chi-render,1
2022-08-06-quantita-di-calcolo,4
2022-08-07-Eppur si muove,1
2022-08-08-aspettando-godevo,5
2022-08-09-pret-a-vpn,5
2022-08-10-sulle-tracce-dell-incoscienza,2
2022-08-11-datemi-una-data,2
2022-08-13-design-da-scaricare,8
2022-08-14-quando-conviene-cambiare-stato,2
2022-08-18-vince-a-cuori,2
2022-08-19-ci-vuole-orecchio,8
2022-08-22-il-piacere-della-slettura,5
2022-08-23-vota-altro,24
2022-08-24-un-gusto-che-resta,1
2022-08-25-avanti-qualcuno,1
2022-08-28-era-meglio-il-peggio,3
2022-08-31-guerra-turismo-e-roaming,3
2022-09-01-non-si-parla-di-politica,1
2022-09-03-da-strabuzzare-le-orbite,2
2022-09-05-la-punizione-per-il-curioso,1
2022-09-08-l-evento-invisibile,11
2022-09-10-il-satellite-invisibile,12
2022-09-11-digitale-e-associati,5
2022-09-12-ok-il-prezzo-e,3
2022-09-12-ok-il-prezzo-e,8
2022-09-14-nessun-dorma,1
2022-09-16-la-stagione-dei-poteri-oscuri,1
2022-09-17-che-spreco-di-menti,3
2022-09-19-il-gioco-delle-tre-porte,3
2022-09-20-mattone-su-mattone,4
2022-09-21-la-data-base-del-computing,3
2022-09-22-la-teoria-degli-inscemi,20
2022-09-24-un-lifting-alle-righe,2
2022-09-25-uelcom-tu-itali,4
2022-09-26-sottocoperta,4
2022-09-27-da-quest-orecchio-non-ci-sento,2
2022-09-28-paradossi-contenutistici,7
2022-09-29-sono-soddisfazioni,4
2022-10-01-agenzia-degli-stagisti,7
2022-10-05-undici,2
2022-10-06-montare-ad-arte-un-case,9
2022-10-07-dita-non-tease,4
2022-10-08-distopie-didattiche,11
2022-10-09-da-ipad-pro-ad-apple-ii,5
2022-10-11-adulti-a-vent-anni,5
2022-10-13-ma-le-gambe,2
2022-10-16-un-numero-inedito,4
2022-10-17-un-gioco-unix-al-mondo,3
2022-10-18-il-digitale-alla-rovescia,5
2022-10-19-non-e-questo-il-giorno,1
2022-10-20-la-societa-dei-consumi,6
2022-10-21-un-anno-da-venturieri,3
2022-10-22-giochi-come-una-volta,3
2022-10-23-nel-modo-sbagliato,11
2022-10-25-l-ombelico-del-computing,22
2022-10-26-post-postscript,10
2022-10-27-forma-e-funziona,9
2022-10-29-la-prima-colonia-the-montecristo-project-recensione-in-tre-parti-parte-tre,3
2022-10-30-non-vendonsi,2
2022-10-31-controllo-di-realta,2
2022-11-01-trascuratezze,2
2022-11-03-il-momento-del-lento,1
2022-11-04-la-liberta-per-ventidue-euro,2
2022-11-05-per-dire-il-mood,2
2022-11-10-come-non-resistere-alla-tentazione,10
2022-11-11-come-non-resistere-alla-tentazione-di-nuovo,1
2022-11-12-uffa-pero,2
2022-11-13-tutto-sommato-preferibili,11
2022-11-14-frutti-di-sottobosco,5
2022-11-15-cose-a-caso,7
2022-11-16-l-insostenibile-leggerezza-dei-numeri-a-nove-cifre,7
2022-11-17-l-arte-e-ovunque,8
2022-11-18-i-treni-di-una-volta,4
2022-11-19-distruzioni-per-l-uso,2
2022-11-25-ferma-la-firma,7
2022-11-26-suck-e-no-suck,7
2022-11-27-a-piena-pagina,1
2022-11-28-pezzo-da-collezione,3
2022-11-30-lezioni-di-stile,2
2022-12-02-la-legge-dello-scripting,6
2022-12-05-distorsioni-da-ventunesimo-secolo,2
2022-12-07-liberta-per-affinita,2
2022-12-08-priorita-rovesciate,5
2022-12-09-vincere-in-doppio,6
2022-12-10-il-cerchio-si-stringe,7
2022-12-11-non-tutti-fanno-gli-scappati-di-casa,2
2022-12-12-un-ritardato-cibernetico,12
2022-12-13-quei-piccoli-particolari,2
2022-12-14-vale-tutto-vale-niente,3
2022-12-15-il-peccato-originale,2
2022-12-16-appena-nato-libero,7
2022-12-17-e-grazie-per-tutte-le-dissolvenze,3
2022-12-18-un-disamore-progressivo,5
2022-12-19-forma-e-disfunzione,4
2022-12-20-le-parole-sono-importanti,4
2022-12-24-dieci-piccoli-doni,1
2022-12-25-una-luce-per-tutte,3
2022-12-26-una-tastiera-per-due,5
2022-12-28-il-pratico-locale,2
2022-12-29-un-nuovo-piano-quinquennale,4
2022-12-31-camera-non-vista,2
2023-01-01-un-anno-a-sproposito,6
2023-01-04-minimi-comuni-denominatori,4
2023-01-05-chi-non-tocca-muore,6
2023-01-07-addestratori-a-proprie-spese,2
2023-01-10-internexit,5
2023-01-12-cosa-non-farei,2
2023-01-13-toccarlo-piano,2
2023-01-14-e-semplice,2
2023-01-15-presunto-colpevole,4
2023-01-16-un-eta-difficile,2
2023-01-17-e-suono-rifu,2
2023-01-18-i-nefasti-del-passato,4
2023-01-19-ti-ritiri-tu,4
2023-01-22-pur-di-vendere,4
2023-01-23-meditazione-programmata,4
2023-01-25-il-bene-dal-male,2
2023-01-28-la-fortuna-aiuta-gli-audaci,5
2023-01-29-in-alto-i-cuori,2
2023-02-01-processo-alle-intenzioni,8
2023-02-02-il-salvachiappe,2
2023-02-05-imputati-per-stage,9
2023-02-07-lavorare-con-freddezza,2
2023-02-08-la-tecnologia-ci-fa-glossi,4
2023-02-09-l-addestramento-e-tutto,2
2023-02-11-il-costo-degli-annunci,2
2023-02-12-l-invidia-del-BBEdit,11
2023-02-13-ha-vinto-il-quarterback,5
2023-02-15-non-e-come-produrlo,2
2023-02-18-se-questo-e-un-uomo,10
2023-02-19-autentiche-sorprese,2
2023-02-21-i-libri-so-piezz-e-cory,2
2023-02-23-purche-di-nascosto,2
2023-02-24-le-giuste-proporzioni,4
2023-02-25-cartiglio-contro-puntiglio,6
2023-02-26-la-cortina-di-chiacchiere,6
2023-02-27-se-tanto-mi-da-tanto,6
2023-03-03-in-punta-di-pencil,2
2023-03-05-chi-la-fa-l'aspetti,3
2023-03-07-uno-store-da-restaurare,2
2023-03-10-i-like-potatop,4
2023-03-12-non-a-caso,2
2023-03-13-pattern-chiari-amicizia-lunga,8
2023-03-14-serial-solver,11
2023-03-15-per-farti-sentire-meglio,6
2023-03-16-la-catena-del-disvalore,10
2023-03-17-la-ricerca-del-brivido,4
2023-03-19-dalle-fontane-del-paradiso,2
2023-03-20-le-piccole-cose,1
2023-03-21-le-parole-sono-importanti,5
2023-03-22-la-cura-dell-immagine,6
2023-03-23-schemi-e-analogie,9
2023-03-24-pessimismo-e-fastidio,4
2023-03-26-il-gioco-del-se-fossero,4
2023-03-28-naturale-o-artificiale,2
2023-03-30-il-gusto-della-vendita,3
2023-03-31-e-un-caro-saluto-al-manager,2
2023-04-02-una-fetta-di-progresso,5
2023-04-06-ricomincio-da-trentadue,1
2023-04-09-i-ritardi-e-gli-auguri,7
2023-04-11-non-si-e-mai-piu-rivista,2
2023-04-14-chi-ci-portiamo,1
2023-04-16-c-era-una-volta-in-America,4
2023-04-18-marcia-indietro-prima-avanti-di-nuovo,2
2023-04-19-cosi-non-impari,2
2023-04-20-lo-stato-in-prima-persona,20
2023-04-21-stringhe-slacciate,5
2023-04-23-chissa-chi-lo-sa,1
2023-04-24-spazio-disco-ultima-frontiera,2
2023-04-26-il-test-della-sincronizzazione,3
2023-04-27-la-prima-regola,6
2023-04-28-generatori-artistici,5
2023-04-30-stella-fissa,3
2023-05-02-software-a-lunga-conversazione,30
2023-05-05-la-scarica-dei-centouno,5
2023-05-07-vabengono,1
2023-05-07-vabengono,2
2023-05-08-niente-accade-per-caso,4
2023-05-09-la-pomba-nascosta,6
2023-05-12-a-dorso-di-sapeinza,2
2023-05-14-piu-irreale-di-cosi,1
2023-05-15-o-la-borsa-o-le-borse,3
2023-05-16-un-macbook-a-quattro-zampe,6
2023-05-17-la-gemma-nascosta,5
2023-05-18-meno-fortunati,7
2023-05-19-artisti-liberali,2
2023-05-20-cosi-poco-tempo,3
2023-05-21-piccola-manutenzione-ordinaria,14
2023-05-22-altro-che-venticinque-led,12
2023-05-24-cinque-per-cinque,4
2023-05-25-per-cosi-poco,3
2023-05-26-vulevam-savuar,2
2023-05-27-pescatori-di-prompt,2
2023-05-28-centro-di-levita-permanente,3
2023-05-29-belle-comode-e-costose,2
2023-05-30-e-bello-cio-che-funziona,6
2023-05-31-la-californiana-fenice,30
2023-06-02-futuro-semplice,8
2023-06-03-carta-canta,4
2023-06-05-ricerche-e-sviluppi,6
2023-06-06-la-solita-wwdc,14
2023-06-07-la-disruption-del-televisore,23
2023-06-09-la-complessita-cinese,3
2023-06-11-conflitto-di-interessi,12
2023-06-12-gli-piace-predire-facile,2
2023-06-13-dentro-il-programma-niente,5
2023-06-14-l-interfaccia-cervello-computer,7
2023-06-15-l-intelligenza-e-discreta,2
2023-06-16-reputazione-alla-griglia,1
2023-06-17-la-vita-e-fatta-a-strati,6
2023-06-19-la-mia-banda-intona-al-clock,4
2023-06-21-la-carica-dei-cento-milioni,7
2023-06-22-allo-streamo-delle-forze,7
2023-06-23-vision-e-piu-vision,2
2023-06-24-la-lentezza-del-fossile,2
2023-06-29-i-no-laser,10
2023-06-30-la-settimana-di-alan,9
2023-07-03–l-isola-che-non-c-e-piu,2
2023-07-04-guida-all-uso,14
2023-07-06-ideali-e-illusioni-mobile,6
2023-07-07-ideali-e-illusioni-social,5
2023-07-08-il-tipografo-perduto,14
2023-07-09-la-dedizione-per-il-passato,2
2023-07-10-il-gruppo-63,2
2023-07-11-la-prima-e-l-ultima-volta,2
2023-07-12-le-sirene-dei-media,3
2023-07-13-il-tipografo-sbagliato,13
2023-07-14-non-siamo-come-loro,2
2023-07-15-quanto-vale-una-memoria,4
2023-07-16-superior-stabat-red-hat,3
2023-07-19-caratteri-a-sorpresa,7
2023-07-20-sempre-ragazzo,2
2023-07-21-dimostrazioni-di-piazzuola,2
2023-07-22-aptos-a-sollevare-dubbi,9
2023-07-23-glorbo-forever,2
2023-07-27-intelligente-alla-marx,3
2023-07-28-il-giorno-dopo,2
2023-07-29-non-solo-chiacchiere,4
2023-07-31-gli-ultimi-dinosauri,7
2023-08-01-ci-pensa-clui,7
2023-08-02-marcatura-al-cubo,6
2023-08-04-le-ore-dei-dilettanti,2
2023-08-06-giochi-senza-tastiere,5
2023-08-12-ti-leggo-per-le-feste,2
2023-08-18-beata-gioventu,2
2023-08-19-gattopardo-2023,2
2023-08-21-la-storia-per-i-nipoti,2
2023-08-22-il-bug-dell-estate,1
2023-08-23-il-futuro-dei-miopi,5
2023-08-25-occasionissime,5
2023-08-29-in-viaggio-con-iPad,6
2023-08-30-sempre-piu-in-fondo,2
2023-09-05-viaggi-allucinanti,3
2023-09-06-imparare-la-magia,4
2023-09-09–la-visione-delle-app-piu-da-vicino,2
2023-09-12-la-strategia-misteriosa,2
2023-09-13-come-natura-vuole,2
2023-09-16-magheggi-conservatori,2
2023-09-17-a-chi-serve,5
2023-09-19-la-sfida-finale-per-l-autoapprendimento,4
2023-09-20–woodstock-fugit,2
2023-09-23-una-vita-da-aggiornato,3
2023-09-24-ubriachezza-da-vin,2
2023-09-25-entita-inconoscibili,2
2023-09-26-l-anno-che-verra,6
2023-09-27-un-attimo-di-follia,3
2023-09-28-lo-spirito-invisibile-del-mercato,4
2023-09-29-allieve-e-maestre,4
2023-10-01-l-ultimo-postscript,2
2023-10-02-a-lunghissimo-termine,3
2023-10-03-mac-vecchio-vita-nuova,11
2023-10-09-la-pioniera-dimenticata,6
2023-10-10-segni-trascurati,3
2023-10-11-salute-a-tutti,4
2023-10-13-la-stretta-zuccherosa,4
2023-10-22-rianimazione sospesa,2
2023-10-27-smart-mi-anche-no,2
2023-10-30-la-forza-di-marea,2
2023-11-04-un-po-dati-un-po-no,7
2023-11-05-pro-e-la-prima-cosa,3
2023-11-07-colorsync-torna-utile,2
2023-11-08-nullo-dies-sine-lisp,2
2023-11-10-siamo-fuori-registro,4
2023-11-12-il-multisuccesso,2
2023-11-15-giochi-e-pregiudizi,2
2023-11-17-futuro-anteriore-o-le-quattro-stagioni,3
2023-11-18-discorsi-complessi,2
2023-11-23-per-il-tuo-nome-c-e-spazio,1
2023-11-24-semplice-eppure,2
2023-11-26-non-uno-di-less,10
2023-11-29-lingue-straniere,2
2023-12-01-natale-con-il-coding,2
2023-12-02-back-to-basic,2
2023-12-03-il-regalo-perfetto,2
2023-12-04-poveri-consumisti,10
2023-12-05-blog-vuol-dire-liberta,17
2023-12-24-una-vigilia-di-promesse,10
2023-12-29-come-vincere-gli-open,2
2023-12-30-sincronicita-in-pillole,2
2023-12-31-sacrifichiamo-gli-ebook,8
2024-01-01-qualcosa-di-usato,2
2024-01-03-al-lavoro-nell-oscurita,4
2024-01-06-viva-la-differenza,2
2024-01-07-la-non-distro,4
2024-01-08-la-terza-invenzione,5
2024-01-09-il-disagio-mentale,2
2024-01-11-e-quindici,3
2024-01-15-folli-di-batteria,3
2024-01-17-basta-anticaglie,3
2024-01-20-niente-panic,10
2024-01-22-non-ne-restera-solo-uno,20
2024-01-24-il-giorno-prima,9
2024-01-25-visioni-e-previsioni,3
2024-01-26-passare-parola,6
2024-01-28-non-ci-capiamo,6
2024-01-29-fogli-di-via,8
2024-01-31-un-esperienza-spaziale,4
2024-02-02-quota-cento,7
2024-02-03-imparare-a-insegnare,4
2024-02-05-miti-da-non-sfatare,2
2024-02-06-l-urca-dell-alleanza,5
2024-02-07-lezione-capovolta,2
2024-02-11-nelle-pieghe-della-computer-science,3
2024-02-12-conservazione-o-rivoluzione,6
2024-02-13-spam-and-vision,2
2024-02-14-giorni-contati,3
2024-02-15-perdere-dal-titolo,4
2024-02-18-algebra-e-disuguaglianze,4
2024-02-19-canva-che-ti-passa,2
2024-02-20-non-del-tutto,4
2024-02-22-il-quanto-di-sfida,13
2024-02-23-a-che-punto-e-la-notte,9
2024-02-24-la-prevalenza-del-terminale,4
2024-02-25-il-finder-della-domenica,4
2024-02-27-storia-semplice,1
2024-02-28-l-accento-sul-degrado,6
2024-02-29-non-c-e-due,4
2024-03-04-chiama-l-avvocato,3
2024-03-05-come-lui-nessuno,6
2024-03-06-la-visione-del-virtuale-piu-da-vicino,16
2024-03-07-segnali-di-vita-intelligente,2
2024-03-10-sbagliare-veloci,13
2024-03-11-macchine-e-misteri,2
2024-03-12-gli-esami-non-tradiscono-mai,4
2024-03-13-non-si-e-mai-troppo-tardi,11
2024-03-14-venti-in-silenzio,2
2024-03-15-macchine-intelligenti,2
2024-03-16-il-prezzo-e-il-messaggio,2
2024-03-18-nessuno-e-neutrale,6
2024-03-20-l-open-source-salva-il-mondo,1
2024-03-21-quasi-come-a-fremont,2
2024-03-23-diventare-grandi,6
2024-03-25-una-storia-della-disuguaglianza,6
