titolo,pubblicato
Codici e sorgenti,23/07/2010
Il primate va al sociale,22/07/2010
La mela svizzera,22/07/2010
Meglio subito che tardi,21/07/2010
Momenti di grande giornalismo,21/07/2010
Dimenticavo,20/07/2010
La presa di sale,20/07/2010
Riformate le rotative,19/07/2010
La nascita dello yobnaf,18/07/2010
Di fronte a un nullatenente intellettuale,17/07/2010
Non c’è peggior sordo,17/07/2010
Nel regno del fattibile / 1 bis,16/07/2010
L’esca postale,16/07/2010
Come allo zoosafari,15/07/2010
Password tira e pacco,14/07/2010
Pubblicità tabellare,13/07/2010
Compiti per le vacanze,12/07/2010
Un dito miliare,11/07/2010
Promemoria stereotipi,10/07/2010
