titolo,pubblicato
Il lavoro sublima,9/04/2010
E adesso Ars Technica,8/04/2010
Da leggere e da guardare,8/04/2010
Lo stile fa il designer,8/04/2010
The Dark Side of the Nes,7/04/2010
Un’impresa spaziale,7/04/2010
"Come fa, sbaglia",6/04/2010
La forza dei criceti,5/04/2010
Potenza della wiki,4/04/2010
Dubbi da dissipare,3/04/2010
I sistemi operativi che contano,2/04/2010
Il futuro dell’industria,1/04/2010
Causa. Ed effetto,1/04/2010
Migliore descrizione dell’anno,31/03/2010
Sicurezza record (anche su Leopard),30/03/2010
Il tocco quasi magico,30/03/2010
Quando vincono i deboli,29/03/2010
La pubblicità è l’anima,28/03/2010
Zero alla quota,27/03/2010
