titolo,pubblicato
Sfida all’iOS Corral,22/01/2011
Semplicità,21/01/2011
"Un conto è un conto, un conto è alla rovescia",20/01/2011
Parlarne insieme,19/01/2011
Un circuito in una pagina,18/01/2011
Quant’è lontana l’Europa,17/01/2011
Effetto cascata,16/01/2011
Le parole sono bigrammi,15/01/2011
Il primo passo in pubblico,14/01/2011
Esce d’aprile,13/01/2011
Forma e sostanza,12/01/2011
Pubblicazioni,11/01/2011
Nel regno del fattibile fai-da-te,10/01/2011
In principio era il domani,9/01/2011
Consigli per i non acquisti,8/01/2011
Ringraziamenti a Babbo Natale / 4,7/01/2011
Fiducia e sicurezza,6/01/2011
Grandi e piccini,5/01/2011
Ringraziamenti a Babbo Natale / 3,4/01/2011
