titolo,pubblicato
Tecnologia e nachos,6/02/2011
Potrebbe essere storia,5/02/2011
Con e senza,4/02/2011
Sette e mezza con la matta,3/02/2011
"Fermate il mondo, voglio salire",2/02/2011
Una cosa linka l’altra,1/02/2011
Grandi piccolezze,31/01/2011
Molto sotto l’albero,30/01/2011
Il signor Bonaventura,29/01/2011
Un Wi-Fi per tutti,28/01/2011
La porta sul retro,27/01/2011
Da mercato a meritocrazia,26/01/2011
Un formato di spessore,25/01/2011
Ogni cosa al suo posto,24/01/2011
Il censore,23/01/2011
Sfida all’iOS Corral,22/01/2011
Semplicità,21/01/2011
"Un conto è un conto, un conto è alla rovescia",20/01/2011
Parlarne insieme,19/01/2011
